
# Gmail web Start
0.0.0.0	chatenabled.mail.google.com
0.0.0.0	filetransferenabled.mail.google.com
0.0.0.0	gmail.com
0.0.0.0	gmail.google.com
0.0.0.0	googlemail.l.google.com
0.0.0.0	inbox.google.com
0.0.0.0	isolated.mail.google.com
0.0.0.0	m.gmail.com
0.0.0.0	m.googlemail.com
0.0.0.0	mail.google.com
0.0.0.0	www.gmail.com
0.0.0.0	mail-settings.google.com
0.0.0.0	m.android.com
# Gmail web End

# Google Start
0.0.0.0	www.google.com
0.0.0.0	google.com
0.0.0.0	gcr.io
0.0.0.0	www.gcr.io
0.0.0.0	com.google
0.0.0.0	admin.google.com
0.0.0.0	accounts.google.com
0.0.0.0	accounts.google.cn
0.0.0.0	aboutme.google.com
0.0.0.0	atap.google.com
0.0.0.0	assistant.google.com
0.0.0.0	passwords.google.com
0.0.0.0	privacy.google.com
0.0.0.0	takeout.google.com
0.0.0.0	bpui0.google.com
0.0.0.0	cse.google.com
0.0.0.0	clients1.google.com
0.0.0.0	clients2.google.com
0.0.0.0	clients3.google.com
0.0.0.0	clients4.google.com
0.0.0.0	clients5.google.com
0.0.0.0	clients6.google.com
0.0.0.0	classroom.google.com
0.0.0.0	classroom.google.ca
0.0.0.0	clouderrorreporting.clients6.google.com
0.0.0.0	datastore.clients6.google.com
0.0.0.0	contributor.google.com
0.0.0.0	dns.google.com
0.0.0.0	desktop.google.com
0.0.0.0	desktop2.google.com
0.0.0.0	encrypted.google.com
0.0.0.0	encrypted-tbn0.google.com
0.0.0.0	encrypted-tbn1.google.com
0.0.0.0	encrypted-tbn2.google.com
0.0.0.0	encrypted-tbn3.google.com
0.0.0.0	fi.google.com
0.0.0.0	fit.google.com
0.0.0.0	fiber.google.com
0.0.0.0	fonts.google.com
0.0.0.0	goto.google.com
0.0.0.0	gxc.google.com
0.0.0.0	get.google.com
0.0.0.0	gsuite.google.com
0.0.0.0	history.google.com
0.0.0.0	myactivity.google.com
0.0.0.0	isp.google.com
0.0.0.0	investor.google.com
0.0.0.0	jmt0.google.com
0.0.0.0	keep.google.com
0.0.0.0	linkhelp.clients.google.com
0.0.0.0	upload.clients.google.com
0.0.0.0	myaccount.google.com
0.0.0.0	peering.google.com
0.0.0.0	places.google.com
0.0.0.0	pki.google.com
0.0.0.0	patents.google.com
0.0.0.0	script.google.com
0.0.0.0	security.google.com
0.0.0.0	services.google.com
0.0.0.0	store.google.com
0.0.0.0	suggestqueries.google.com
0.0.0.0	support.google.com
0.0.0.0	upload.google.com
0.0.0.0	uploads.clients.google.com
0.0.0.0	video.google.com
0.0.0.0	video-stats.video.google.com
0.0.0.0	voice.google.com
0.0.0.0	upload.video.google.com
0.0.0.0	ads.google.com
0.0.0.0	www.googlegroups.com
0.0.0.0	a.orkut.gmodules.com
0.0.0.0	www.googlestore.com
0.0.0.0	ig.ig.gmodules.com
0.0.0.0	redirector.c.youtube.com
0.0.0.0	relay.google.com
0.0.0.0	image.google.com
0.0.0.0	mapsengine.google.com
0.0.0.0	client-channel.google.com
0.0.0.0	0.client-channel.google.com
0.0.0.0	1.client-channel.google.com
0.0.0.0	2.client-channel.google.com
0.0.0.0	3.client-channel.google.com
0.0.0.0	4.client-channel.google.com
0.0.0.0	5.client-channel.google.com
0.0.0.0	6.client-channel.google.com
0.0.0.0	7.client-channel.google.com
0.0.0.0	8.client-channel.google.com
0.0.0.0	9.client-channel.google.com
0.0.0.0	10.client-channel.google.com
0.0.0.0	11.client-channel.google.com
0.0.0.0	12.client-channel.google.com
0.0.0.0	13.client-channel.google.com
0.0.0.0	14.client-channel.google.com
0.0.0.0	15.client-channel.google.com
0.0.0.0	16.client-channel.google.com
0.0.0.0	17.client-channel.google.com
0.0.0.0	18.client-channel.google.com
0.0.0.0	19.client-channel.google.com
0.0.0.0	20.client-channel.google.com
0.0.0.0	21.client-channel.google.com
0.0.0.0	22.client-channel.google.com
0.0.0.0	23.client-channel.google.com
0.0.0.0	24.client-channel.google.com
0.0.0.0	25.client-channel.google.com
0.0.0.0	26.client-channel.google.com
0.0.0.0	27.client-channel.google.com
0.0.0.0	28.client-channel.google.com
0.0.0.0	29.client-channel.google.com
0.0.0.0	cello.client-channel.google.com
0.0.0.0	google.com.hk
0.0.0.0	www.google.com.hk
0.0.0.0	accounts.google.com.hk
0.0.0.0	clients1.google.com.hk
0.0.0.0	desktop.google.com.hk
0.0.0.0	gxc.google.com.hk
0.0.0.0	video.google.com.hk
0.0.0.0	id.google.com.hk
0.0.0.0	mobile.google.com.hk
0.0.0.0	picasaweb.google.com.hk
0.0.0.0	www.googlechinawebmaster.com
0.0.0.0	google.com.tw
0.0.0.0	www.google.com.tw
0.0.0.0	accounts.google.com.tw
0.0.0.0	books.google.com.tw
0.0.0.0	clients1.google.com.tw
0.0.0.0	desktop.google.com.tw
0.0.0.0	groups.google.com.tw
0.0.0.0	gxc.google.com.tw
0.0.0.0	id.google.com.tw
0.0.0.0	images.google.com.tw
0.0.0.0	picasaweb.google.com.tw
0.0.0.0	toolbar.google.com.tw
0.0.0.0	toolbarqueries.google.com.tw
0.0.0.0	video.google.com.tw
0.0.0.0	google.co.jp
0.0.0.0	www.google.co.jp
0.0.0.0	accounts.google.co.jp
0.0.0.0	blogsearch.google.co.jp
0.0.0.0	books.google.co.jp
0.0.0.0	clients1.google.co.jp
0.0.0.0	desktop.google.co.jp
0.0.0.0	groups.google.co.jp
0.0.0.0	images.google.co.jp
0.0.0.0	maps.google.co.jp
0.0.0.0	news.google.co.jp
0.0.0.0	picasaweb.google.co.jp
0.0.0.0	scholar.google.co.jp
0.0.0.0	toolbar.google.co.jp
0.0.0.0	toolbarqueries.google.co.jp
0.0.0.0	translate.google.co.jp
0.0.0.0	google.com.sg
0.0.0.0	www.google.com.sg
0.0.0.0	accounts.google.com.sg
0.0.0.0	blogsearch.google.com.sg
0.0.0.0	books.google.com.sg
0.0.0.0	clients1.google.com.sg
0.0.0.0	desktop.google.com.sg
0.0.0.0	groups.google.com.sg
0.0.0.0	gxc.google.com.sg
0.0.0.0	id.google.com.sg
0.0.0.0	images.google.com.sg
0.0.0.0	maps.google.com.sg
0.0.0.0	news.google.com.sg
0.0.0.0	scholar.google.com.sg
0.0.0.0	toolbar.google.com.sg
0.0.0.0	toolbarqueries.google.com.sg
0.0.0.0	translate.google.com.sg
0.0.0.0	apps.google.com
0.0.0.0	googlemashups.com
0.0.0.0	www.googlemashups.com
0.0.0.0	appengine.google.com
0.0.0.0	uploads.stage.gdata.youtube.com
0.0.0.0	answers.google.com
0.0.0.0	wenda.google.com.hk
0.0.0.0	analytics.googleblog.com
0.0.0.0	android.googleblog.com
0.0.0.0	android-developers.googleblog.com
0.0.0.0	research.googleblog.com
0.0.0.0	security.googleblog.com
0.0.0.0	gmail.googleblog.com
0.0.0.0	chrome.googleblog.com
0.0.0.0	search.googleblog.com
0.0.0.0	webmasters.googleblog.com
0.0.0.0	maps.googleblog.com
0.0.0.0	cloudplatform.googleblog.com
0.0.0.0	youtube.googleblog.com
0.0.0.0	blogsearch.google.com
0.0.0.0	blogsearch.google.com.hk
0.0.0.0	blogsearch.google.com.tw
0.0.0.0	accounts.blogger.com
0.0.0.0	www.blogger.com
0.0.0.0	blogger.com
0.0.0.0	www.googleblog.com
0.0.0.0	googleblog.com
0.0.0.0	blogger.google.com
0.0.0.0	www2.blogger.com
0.0.0.0	www.blogblog.com
0.0.0.0	www1.blogblog.com
0.0.0.0	www2.blogblog.com
0.0.0.0	beta.blogger.com
0.0.0.0	buttons.blogger.com
0.0.0.0	buzz.blogger.com
0.0.0.0	draft.blogger.com
0.0.0.0	status.blogger.com
0.0.0.0	help.blogger.com
0.0.0.0	photos1.blogger.com
0.0.0.0	bp0.blogger.com
0.0.0.0	bp1.blogger.com
0.0.0.0	bp2.blogger.com
0.0.0.0	bp3.blogger.com
0.0.0.0	img.blogblog.com
0.0.0.0	img1.blogblog.com
0.0.0.0	img2.blogblog.com
0.0.0.0	resources.blogblog.com
0.0.0.0	www.textcube.com
0.0.0.0	www.blogspot.com
0.0.0.0	blogspot.com
0.0.0.0	1.bp.blogspot.com
0.0.0.0	2.bp.blogspot.com
0.0.0.0	3.bp.blogspot.com
0.0.0.0	4.bp.blogspot.com
0.0.0.0	googleblog.blogspot.com
0.0.0.0	googleforstudents.blogspot.com
0.0.0.0	students.googleblog.com
0.0.0.0	chrome.blogspot.com
0.0.0.0	googleadservices.com
0.0.0.0	www.googleadservices.com
0.0.0.0	google-latlong.blogspot.com
0.0.0.0	insidesearch.blogspot.com
0.0.0.0	googleadsdeveloper.blogspot.com
0.0.0.0	officialandroid.blogspot.com
0.0.0.0	android-developers.blogspot.com
0.0.0.0	android-developers.blogspot.hk
0.0.0.0	developers.googleblog.com
0.0.0.0	books.google.com
0.0.0.0	books.google.com.hk
0.0.0.0	buzz.google.com
0.0.0.0	calendar.google.com
0.0.0.0	checkout.google.com
0.0.0.0	wallet.google.com
0.0.0.0	landing.google.com
0.0.0.0	chrome.com
0.0.0.0	www.chrome.com
0.0.0.0	developer.chrome.com
0.0.0.0	www.chromestatus.com
0.0.0.0	chrome.google.com
0.0.0.0	browsersync.google.com
0.0.0.0	toolbarqueries.google.com.hk
0.0.0.0	toolbarqueries.clients.google.com
0.0.0.0	chromium.org
0.0.0.0	www.chromium.org
0.0.0.0	cs.chromium.org
0.0.0.0	dev.chromium.org
0.0.0.0	blog.chromium.org
0.0.0.0	bugs.chromium.org
0.0.0.0	www.appspot.com
0.0.0.0	appspot.com
0.0.0.0	apis-explorer.appspot.com
0.0.0.0	betaspike.appspot.com
0.0.0.0	hstspreload.appspot.com
0.0.0.0	chrome-devtools-frontend.appspot.com
0.0.0.0	chrometophone.appspot.com
0.0.0.0	download-chromium.appspot.com
0.0.0.0	jmoore-dot-android-experiments.appspot.com
0.0.0.0	lfe-alpo-gm.appspot.com
0.0.0.0	m-dot-betaspike.appspot.com
0.0.0.0	joinjoaomgcd.appspot.com
0.0.0.0	accounts.google.com.gi
0.0.0.0	accounts.google.co.nz
0.0.0.0	id.google.co.nz
0.0.0.0	www.googlecode.com
0.0.0.0	fuchsia.googlesource.com
0.0.0.0	googlesource.com
0.0.0.0	boringssl.googlesource.com
0.0.0.0	tensorflow.googlesource.com
0.0.0.0	gerrit.googlesource.com
0.0.0.0	gerrit-review.googlesource.com
0.0.0.0	chromium.googlesource.com
0.0.0.0	kernel.googlesource.com
0.0.0.0	android-review.googlesource.com
0.0.0.0	r.android.com
0.0.0.0	gwt.googlesource.com
0.0.0.0	code.google.com
0.0.0.0	uploads.code.google.com
0.0.0.0	chromium.googlecode.com
0.0.0.0	closure-library.googlecode.com
0.0.0.0	earth-api-samples.googlecode.com
0.0.0.0	gmaps-samples-flash.googlecode.com
0.0.0.0	googleappengine.googlecode.com
0.0.0.0	google-code-feed-gadget.googlecode.com
0.0.0.0	google-code-prettify.googlecode.com
0.0.0.0	www.googlesource.com
0.0.0.0	android.googlesource.com
0.0.0.0	cloud.google.com
0.0.0.0	ogs.google.com
0.0.0.0	packages.cloud.google.com
0.0.0.0	console.cloud.google.com
0.0.0.0	status.cloud.google.com
0.0.0.0	ssh.cloud.google.com
0.0.0.0	developers.google.com
0.0.0.0	cloudssh.developers.google.com
0.0.0.0	codelabs.developers.google.com
0.0.0.0	console.developers.google.com
0.0.0.0	source.developers.google.com
0.0.0.0	cla.developers.google.com
0.0.0.0	design.google.com
0.0.0.0	directory.google.com
0.0.0.0	dir.google.com
0.0.0.0	events.google.com
0.0.0.0	savethedate.foo
0.0.0.0	www.savethedate.foo
0.0.0.0	googledrive.com
0.0.0.0	docs.google.com
0.0.0.0	drive.google.com
0.0.0.0	docs0.google.com
0.0.0.0	docs1.google.com
0.0.0.0	docs2.google.com
0.0.0.0	docs3.google.com
0.0.0.0	docs4.google.com
0.0.0.0	docs5.google.com
0.0.0.0	docs6.google.com
0.0.0.0	docs7.google.com
0.0.0.0	docs8.google.com
0.0.0.0	docs9.google.com
0.0.0.0	firebase.google.com
0.0.0.0	material.google.com
0.0.0.0	material.io
0.0.0.0	writely.google.com
0.0.0.0	upload.docs.google.com
0.0.0.0	upload.drive.google.com
0.0.0.0	0.docs.google.com
0.0.0.0	1.docs.google.com
0.0.0.0	2.docs.google.com
0.0.0.0	3.docs.google.com
0.0.0.0	4.docs.google.com
0.0.0.0	5.docs.google.com
0.0.0.0	6.docs.google.com
0.0.0.0	7.docs.google.com
0.0.0.0	8.docs.google.com
0.0.0.0	9.docs.google.com
0.0.0.0	10.docs.google.com
0.0.0.0	11.docs.google.com
0.0.0.0	12.docs.google.com
0.0.0.0	13.docs.google.com
0.0.0.0	14.docs.google.com
0.0.0.0	15.docs.google.com
0.0.0.0	16.docs.google.com
0.0.0.0	0.drive.google.com
0.0.0.0	1.drive.google.com
0.0.0.0	2.drive.google.com
0.0.0.0	3.drive.google.com
0.0.0.0	4.drive.google.com
0.0.0.0	5.drive.google.com
0.0.0.0	6.drive.google.com
0.0.0.0	7.drive.google.com
0.0.0.0	8.drive.google.com
0.0.0.0	9.drive.google.com
0.0.0.0	10.drive.google.com
0.0.0.0	11.drive.google.com
0.0.0.0	12.drive.google.com
0.0.0.0	13.drive.google.com
0.0.0.0	14.drive.google.com
0.0.0.0	15.drive.google.com
0.0.0.0	16.drive.google.com
0.0.0.0	spreadsheet.google.com
0.0.0.0	spreadsheets.google.com
0.0.0.0	spreadsheets0.google.com
0.0.0.0	spreadsheets1.google.com
0.0.0.0	spreadsheets2.google.com
0.0.0.0	spreadsheets3.google.com
0.0.0.0	spreadsheets4.google.com
0.0.0.0	spreadsheets5.google.com
0.0.0.0	spreadsheets6.google.com
0.0.0.0	spreadsheets7.google.com
0.0.0.0	spreadsheets8.google.com
0.0.0.0	spreadsheets9.google.com
0.0.0.0	drivenotepad.appspot.com
0.0.0.0	8c953efe117cb4ee14eaffe2b417623a104ce4e6.googledrive.com
0.0.0.0	v3.cache1.c.docs.google.com
0.0.0.0	domains.google.com
0.0.0.0	dl-ssl.google.com
0.0.0.0	earth.google.com
0.0.0.0	auth.keyhole.com
0.0.0.0	geoauth.google.com
0.0.0.0	finance.google.com
0.0.0.0	fusion.google.com
0.0.0.0	groups.google.com
0.0.0.0	groups.google.com.hk
0.0.0.0	groups-beta.google.com
0.0.0.0	productforums.google.com
0.0.0.0	a77db9aa-a-7b23c8ea-s-sites.googlegroups.com
0.0.0.0	blob-s-docs.googlegroups.com
0.0.0.0	health.google.com
0.0.0.0	images.google.com
0.0.0.0	images.google.com.hk
0.0.0.0	tbn0.google.com
0.0.0.0	tbn1.google.com
0.0.0.0	tbn2.google.com
0.0.0.0	tbn3.google.com
0.0.0.0	inputtools.google.com
0.0.0.0	knol.google.com
0.0.0.0	mars.google.com
0.0.0.0	maps.google.com
0.0.0.0	maps.google.com.hk
0.0.0.0	maps.google.com.tw
0.0.0.0	local.google.com
0.0.0.0	ditu.google.com
0.0.0.0	maps-api-ssl.google.com
0.0.0.0	map.google.com
0.0.0.0	cbk0.google.com
0.0.0.0	cbk1.google.com
0.0.0.0	cbk2.google.com
0.0.0.0	cbk3.google.com
0.0.0.0	khms.google.com
0.0.0.0	khms0.google.com
0.0.0.0	khms1.google.com
0.0.0.0	khms2.google.com
0.0.0.0	khms3.google.com
0.0.0.0	cbks0.google.com
0.0.0.0	cbks1.google.com
0.0.0.0	cbks2.google.com
0.0.0.0	cbks3.google.com
0.0.0.0	ipv4.google.com
0.0.0.0	mw1.google.com
0.0.0.0	mw2.google.com
0.0.0.0	mt.google.com
0.0.0.0	mt0.google.com
0.0.0.0	mt1.google.com
0.0.0.0	mt2.google.com
0.0.0.0	mt3.google.com
0.0.0.0	gg.google.com
0.0.0.0	id.google.com
0.0.0.0	mts.google.com
0.0.0.0	mts0.google.com
0.0.0.0	mts1.google.com
0.0.0.0	mts2.google.com
0.0.0.0	mts3.google.com
0.0.0.0	mobilemaps.clients.google.com
0.0.0.0	music.google.com
0.0.0.0	music.googleusercontent.com
0.0.0.0	music-pa.clients6.google.com
0.0.0.0	scholar.googleusercontent.com
0.0.0.0	uploadsj.clients.google.com
0.0.0.0	news.google.com
0.0.0.0	news.google.com.hk
0.0.0.0	news.google.com.tw
0.0.0.0	orkut.google.com
0.0.0.0	www.orkut.gmodules.com
0.0.0.0	pack.google.com
0.0.0.0	photos.google.com
0.0.0.0	picasa.google.com
0.0.0.0	picasaweb.google.com
0.0.0.0	lh2.google.com
0.0.0.0	lh3.google.com
0.0.0.0	lh4.google.com
0.0.0.0	lh5.google.com
0.0.0.0	lh6.google.com
0.0.0.0	upload.photos.google.com
0.0.0.0	profiles.google.com
0.0.0.0	plusone.google.com
0.0.0.0	plus.google.com
0.0.0.0	plus.url.google.com
0.0.0.0	spaces.google.com
0.0.0.0	pixel.google.com
0.0.0.0	madeby.google.com
0.0.0.0	vr.google.com
0.0.0.0	reader.google.com
0.0.0.0	research.google.com
0.0.0.0	sb.google.com
0.0.0.0	sb-ssl.google.com
0.0.0.0	safebrowsing.google.com
0.0.0.0	search.google.com
0.0.0.0	alt1-safebrowsing.google.com
0.0.0.0	safebrowsing.clients.google.com
0.0.0.0	safebrowsing-cache.google.com
0.0.0.0	sandbox.google.com
0.0.0.0	scholar.google.com
0.0.0.0	scholar.google.com.hk
0.0.0.0	scholar.google.com.tw
0.0.0.0	sites.google.com
0.0.0.0	surveys.google.com
0.0.0.0	sketchup.google.com
0.0.0.0	tagmanager.google.com
0.0.0.0	talkgadget.google.com
0.0.0.0	tools.google.com
0.0.0.0	toolbar.google.com
0.0.0.0	toolbar.google.com.hk
0.0.0.0	translate.google.com
0.0.0.0	translate.google.com.hk
0.0.0.0	translate.google.com.tw
0.0.0.0	trends.google.com
0.0.0.0	0.gvt0.com
0.0.0.0	1.gvt0.com
0.0.0.0	2.gvt0.com
0.0.0.0	3.gvt0.com
0.0.0.0	4.gvt0.com
0.0.0.0	5.gvt0.com
0.0.0.0	wave.google.com
0.0.0.0	wave1.google.com
0.0.0.0	googlewave.com
0.0.0.0	wifi.google.com
0.0.0.0	gmodules.com
0.0.0.0	www.gmodules.com
0.0.0.0	www.ig.gmodules.com
0.0.0.0	ig.gmodules.com
0.0.0.0	ads.gmodules.com
0.0.0.0	p.gmodules.com
0.0.0.0	1.ig.gmodules.com
0.0.0.0	2.ig.gmodules.com
0.0.0.0	3.ig.gmodules.com
0.0.0.0	4.ig.gmodules.com
0.0.0.0	5.ig.gmodules.com
0.0.0.0	6.ig.gmodules.com
0.0.0.0	maps.gmodules.com
0.0.0.0	img0.gmodules.com
0.0.0.0	img1.gmodules.com
0.0.0.0	img2.gmodules.com
0.0.0.0	img3.gmodules.com
0.0.0.0	skins.gmodules.com
0.0.0.0	friendconnect.gmodules.com
0.0.0.0	0.blogger.gmodules.com
0.0.0.0	partnerpage.google.com
0.0.0.0	apis.google.com
0.0.0.0	domains.google
0.0.0.0	www.registry.google
0.0.0.0	www.domains.google
0.0.0.0	registry.google
0.0.0.0	apikeys.clients6.google.com
0.0.0.0	servicemanagement.clients6.google.com
0.0.0.0	cloudconsole-pa.clients6.google.com
0.0.0.0	iam.clients6.google.com
0.0.0.0	clientauthconfig.clients6.google.com
0.0.0.0	realtimesupport.clients6.google.com
0.0.0.0	360suite.google.com
0.0.0.0	optimize.google.com
0.0.0.0	attribution.google.com
0.0.0.0	audiencecenter.google.com
0.0.0.0	datastudio.google.com
0.0.0.0	studykit.google.com
0.0.0.0	business.google.com
0.0.0.0	google-analytics.com
0.0.0.0	www.googletagmanager.com
0.0.0.0	artsandculture.google.com

# gstatic Start
0.0.0.0	geo0.ggpht.com
0.0.0.0	geo1.ggpht.com
0.0.0.0	geo2.ggpht.com
0.0.0.0	geo3.ggpht.com
0.0.0.0	gm1.ggpht.com
0.0.0.0	gm2.ggpht.com
0.0.0.0	gm3.ggpht.com
0.0.0.0	gm4.ggpht.com
0.0.0.0	lh3.ggpht.com
0.0.0.0	lh4.ggpht.com
0.0.0.0	lh5.ggpht.com
0.0.0.0	lh6.ggpht.com
0.0.0.0	nt0.ggpht.com
0.0.0.0	nt1.ggpht.com
0.0.0.0	nt2.ggpht.com
0.0.0.0	nt3.ggpht.com
0.0.0.0	yt3.ggpht.com
0.0.0.0	yt4.ggpht.com
0.0.0.0	accounts.gstatic.com
0.0.0.0	maps.gstatic.com
0.0.0.0	ssl.gstatic.com
0.0.0.0	www.gstatic.com
0.0.0.0	encrypted-tbn0.gstatic.com
0.0.0.0	encrypted-tbn1.gstatic.com
0.0.0.0	encrypted-tbn2.gstatic.com
0.0.0.0	encrypted-tbn3.gstatic.com
0.0.0.0	g0.gstatic.com
0.0.0.0	g1.gstatic.com
0.0.0.0	g2.gstatic.com
0.0.0.0	g3.gstatic.com
0.0.0.0	mt0.gstatic.com
0.0.0.0	mt1.gstatic.com
0.0.0.0	mt2.gstatic.com
0.0.0.0	mt3.gstatic.com
0.0.0.0	mt4.gstatic.com
0.0.0.0	mt5.gstatic.com
0.0.0.0	mt6.gstatic.com
0.0.0.0	mt7.gstatic.com
0.0.0.0	t0.gstatic.com
0.0.0.0	t1.gstatic.com
0.0.0.0	t2.gstatic.com
0.0.0.0	t3.gstatic.com
# gstatic End

# Googleapis Start
0.0.0.0	chart.apis.google.com
0.0.0.0	googleapis.com
0.0.0.0	www.googleapis.com
0.0.0.0	ajax.googleapis.com
0.0.0.0	android.googleapis.com
0.0.0.0	bigcache.googleapis.com
0.0.0.0	chart.googleapis.com
0.0.0.0	content.googleapis.com
0.0.0.0	khms0.googleapis.com
0.0.0.0	khms1.googleapis.com
0.0.0.0	maps.googleapis.com
0.0.0.0	origin-commondatastorage.googleapis.com
0.0.0.0	commondatastorage.googleapis.com
0.0.0.0	play.googleapis.com
0.0.0.0	plus.googleapis.com
0.0.0.0	redirector-bigcache.googleapis.com
0.0.0.0	youtube.googleapis.com
0.0.0.0	youtubei.googleapis.com
0.0.0.0	mt0.googleapis.com
0.0.0.0	mt1.googleapis.com
0.0.0.0	mt2.googleapis.com
0.0.0.0	mt3.googleapis.com
0.0.0.0	mts0.googleapis.com
0.0.0.0	mts1.googleapis.com
0.0.0.0	mts2.googleapis.com
0.0.0.0	mts3.googleapis.com
0.0.0.0	ct.googleapis.com
0.0.0.0	securetoken.googleapis.com
0.0.0.0	firebasestorage.googleapis.com
0.0.0.0	www--google--com.safenup.googleusercontent.com
0.0.0.0	www--google--com--hk.safenup.googleusercontent.com
0.0.0.0	code.getmdl.io
0.0.0.0	storage.googleapis.com
# Googleapis End

0.0.0.0	www.googlehosted.com
0.0.0.0	base.googlehosted.com
0.0.0.0	base0.googlehosted.com
0.0.0.0	base1.googlehosted.com
0.0.0.0	base2.googlehosted.com
0.0.0.0	base3.googlehosted.com
0.0.0.0	base4.googlehosted.com
0.0.0.0	base5.googlehosted.com
0.0.0.0	analytics.google.com
0.0.0.0	www.googleartproject.com
0.0.0.0	feedburner.google.com
0.0.0.0	www.feedburner.com
0.0.0.0	feeds.feedburner.com
0.0.0.0	feeds2.feedburner.com
0.0.0.0	feedproxy.google.com
0.0.0.0	go.googlesource.com
0.0.0.0	golang.org
0.0.0.0	www.golang.org
0.0.0.0	blog.golang.org
0.0.0.0	play.golang.org
0.0.0.0	tip.golang.org
0.0.0.0	tour.golang.org
0.0.0.0	google.golang.org
0.0.0.0	goo.gl
0.0.0.0	pay.app.goo.gl
0.0.0.0	g.co
0.0.0.0	www.google.org
0.0.0.0	blog.google.org
0.0.0.0	panoramio.com
0.0.0.0	www.panoramio.com
0.0.0.0	static.panoramio.com
0.0.0.0	blog.panoramio.com
0.0.0.0	www.recaptcha.net
0.0.0.0	api.recaptcha.net
0.0.0.0	api-secure.recaptcha.net
0.0.0.0	mailhide.recaptcha.net
0.0.0.0	webmproject.org
0.0.0.0	www.webmproject.org
0.0.0.0	www.chromercise.com
0.0.0.0	www.data-vocabulary.org
0.0.0.0	www.googleinsidesearch.com
0.0.0.0	www.teachparentstech.org
0.0.0.0	www.thinkwithgoogle.com
0.0.0.0	www.oneworldmanystories.com
0.0.0.0	www.l.google.com
0.0.0.0	www2.l.google.com
0.0.0.0	www3.l.google.com
0.0.0.0	www4.l.google.com
0.0.0.0	accounts.l.google.com
0.0.0.0	accounts-cctld.l.google.com
0.0.0.0	android-market.l.google.com
0.0.0.0	android.l.google.com
0.0.0.0	android-china.l.google.com
0.0.0.0	adwords.l.google.com
0.0.0.0	appspot.l.google.com
0.0.0.0	aspmx.l.google.com
0.0.0.0	b.googlemail.l.google.com
0.0.0.0	blogger.l.google.com
0.0.0.0	bloggerphotos.l.google.com
0.0.0.0	browsersync.l.google.com
0.0.0.0	browserchannel-docs.l.google.com
0.0.0.0	cbk.l.google.com
0.0.0.0	code.l.google.com
0.0.0.0	checkout.l.google.com
0.0.0.0	clients.l.google.com
0.0.0.0	clients-cctld.l.google.com
0.0.0.0	csi.l.google.com
0.0.0.0	desktop.l.google.com
0.0.0.0	dl-ssl.l.google.com
0.0.0.0	encrypted-tbn.l.google.com
0.0.0.0	gadgets.l.google.com
0.0.0.0	googleapis.l.google.com
0.0.0.0	googlecode.l.google.com
0.0.0.0	googlehosted.l.google.com
0.0.0.0	groups.l.google.com
0.0.0.0	history.l.google.com
0.0.0.0	id.l.google.com
0.0.0.0	images.l.google.com
0.0.0.0	ipv4.l.google.com
0.0.0.0	khms.l.google.com
0.0.0.0	large-uploads.l.google.com
0.0.0.0	maps.l.google.com
0.0.0.0	maps-cctld.l.google.com
0.0.0.0	mt.l.google.com
0.0.0.0	mts.l.google.com
0.0.0.0	music-china.l.google.com
0.0.0.0	music-streaming.l.google.com
0.0.0.0	mw-medium.l.google.com
0.0.0.0	mw-small.l.google.com
0.0.0.0	news.l.google.com
0.0.0.0	pagead-tpc.l.google.com
0.0.0.0	picasaweb.l.google.com
0.0.0.0	plus.l.google.com
0.0.0.0	photos-ugc.l.google.com
0.0.0.0	sandbox.l.google.com
0.0.0.0	safebrowsing.cache.l.google.com
0.0.0.0	sb.l.google.com
0.0.0.0	sb-ssl.l.google.com
0.0.0.0	scholar.l.google.com
0.0.0.0	sketchup.l.google.com
0.0.0.0	spreadsheets.l.google.com
0.0.0.0	spreadsheets-china.l.google.com
0.0.0.0	sslvideo-upload.l.google.com
0.0.0.0	suggestqueries.l.google.com
0.0.0.0	tbn.l.google.com
0.0.0.0	tools.l.google.com
0.0.0.0	video.l.google.com
0.0.0.0	googlecl.googlecode.com
0.0.0.0	video-stats.l.google.com
0.0.0.0	video-analytics.l.google.com
0.0.0.0	video-thumbnails.l.google.com
0.0.0.0	wifi.l.google.com
0.0.0.0	writely.l.google.com
0.0.0.0	writely-china.l.google.com
0.0.0.0	www3-china.l.google.com
0.0.0.0	wildcard-talkgadget.l.google.com
0.0.0.0	www-wide.l.google.com
0.0.0.0	youtube-ui.l.google.com
0.0.0.0	yt-video-upload.l.google.com
0.0.0.0	ytimg.l.google.com
0.0.0.0	ytstatic.l.google.com
0.0.0.0	admob.com
0.0.0.0	www.admob.com
0.0.0.0	apps.admob.com
0.0.0.0	adwords.google.com
0.0.0.0	adwords.google.sk
0.0.0.0	www.android.com
0.0.0.0	android.com
0.0.0.0	connectivitycheck.android.com
0.0.0.0	developer.android.com
0.0.0.0	dev.android.com
0.0.0.0	d.android.com
0.0.0.0	b.android.com
0.0.0.0	tools.android.com
0.0.0.0	source.android.com
0.0.0.0	a.android.com
0.0.0.0	market.android.com
0.0.0.0	play.google.com
0.0.0.0	payments.google.com
0.0.0.0	android.clients.google.com
0.0.0.0	withgoogle.com
0.0.0.0	www.withgoogle.com
0.0.0.0	edutrainingcenter.withgoogle.com
0.0.0.0	earthview.withgoogle.com
0.0.0.0	lightsaber.withgoogle.com
0.0.0.0	britishmuseum.withgoogle.com
0.0.0.0	beyondthemap.withgoogle.com
0.0.0.0	analyticsacademy.withgoogle.com
0.0.0.0	spellup.withgoogle.com

# Googleusercontent Start
0.0.0.0	www.googleusercontent.com
0.0.0.0	apidata.googleusercontent.com
0.0.0.0	androidmarket.googleusercontent.com
0.0.0.0	blogger.googleusercontent.com
0.0.0.0	gadgets.l.googleusercontent.com
0.0.0.0	googlehosted.l.googleusercontent.com
0.0.0.0	googlecode.l.googleusercontent.com
0.0.0.0	googlegroups.l.googleusercontent.com
0.0.0.0	markuphelper.googleusercontent.com
0.0.0.0	photos-ugc.l.googleusercontent.com
0.0.0.0	storage.l.googleusercontent.com
0.0.0.0	storage-ugc.l.googleusercontent.com
0.0.0.0	a-fc-opensocial.googleusercontent.com
0.0.0.0	images-focus-opensocial.googleusercontent.com
0.0.0.0	www-blogger-opensocial.googleusercontent.com
0.0.0.0	books.googleusercontent.com
0.0.0.0	ap1.googleusercontent.com
0.0.0.0	ap2.googleusercontent.com
0.0.0.0	ap3.googleusercontent.com
0.0.0.0	ap4.googleusercontent.com
0.0.0.0	ap5.googleusercontent.com
0.0.0.0	ap6.googleusercontent.com
0.0.0.0	ap7.googleusercontent.com
0.0.0.0	ap8.googleusercontent.com
0.0.0.0	ap9.googleusercontent.com
0.0.0.0	ci0.googleusercontent.com
0.0.0.0	ci1.googleusercontent.com
0.0.0.0	ci2.googleusercontent.com
0.0.0.0	ci3.googleusercontent.com
0.0.0.0	ci4.googleusercontent.com
0.0.0.0	ci5.googleusercontent.com
0.0.0.0	ci6.googleusercontent.com
0.0.0.0	gp3.googleusercontent.com
0.0.0.0	gp4.googleusercontent.com
0.0.0.0	gp5.googleusercontent.com
0.0.0.0	gp6.googleusercontent.com
0.0.0.0	gp.googleusercontent.com
0.0.0.0	sp0.googleusercontent.com
0.0.0.0	sp1.googleusercontent.com
0.0.0.0	sp2.googleusercontent.com
0.0.0.0	sp3.googleusercontent.com
0.0.0.0	sp4.googleusercontent.com
0.0.0.0	sp5.googleusercontent.com
0.0.0.0	sp6.googleusercontent.com
0.0.0.0	sp7.googleusercontent.com
0.0.0.0	sp8.googleusercontent.com
0.0.0.0	sp9.googleusercontent.com
0.0.0.0	1-ps.googleusercontent.com
0.0.0.0	2-ps.googleusercontent.com
0.0.0.0	3-ps.googleusercontent.com
0.0.0.0	4-ps.googleusercontent.com
0.0.0.0	gp0.googleusercontent.com
0.0.0.0	gp1.googleusercontent.com
0.0.0.0	gp2.googleusercontent.com
0.0.0.0	www-hangouts-opensocial.googleusercontent.com
0.0.0.0	clients1.googleusercontent.com
0.0.0.0	clients2.googleusercontent.com
0.0.0.0	clients3.googleusercontent.com
0.0.0.0	clients4.googleusercontent.com
0.0.0.0	clients5.googleusercontent.com
0.0.0.0	clients6.googleusercontent.com
0.0.0.0	clients7.googleusercontent.com
0.0.0.0	code-opensocial.googleusercontent.com
0.0.0.0	t.doc-0-0-sj.sj.googleusercontent.com
0.0.0.0	doc-00-00-docs.googleusercontent.com
0.0.0.0	doc-04-00-docs.googleusercontent.com
0.0.0.0	doc-08-00-docs.googleusercontent.com
0.0.0.0	doc-0c-00-docs.googleusercontent.com
0.0.0.0	doc-0g-00-docs.googleusercontent.com
0.0.0.0	doc-0k-00-docs.googleusercontent.com
0.0.0.0	doc-0o-00-docs.googleusercontent.com
0.0.0.0	doc-0s-00-docs.googleusercontent.com
0.0.0.0	doc-10-00-docs.googleusercontent.com
0.0.0.0	doc-14-00-docs.googleusercontent.com
0.0.0.0	doc-00-04-docs.googleusercontent.com
0.0.0.0	doc-04-04-docs.googleusercontent.com
0.0.0.0	doc-08-04-docs.googleusercontent.com
0.0.0.0	doc-0c-04-docs.googleusercontent.com
0.0.0.0	doc-0g-04-docs.googleusercontent.com
0.0.0.0	doc-0k-04-docs.googleusercontent.com
0.0.0.0	doc-0o-04-docs.googleusercontent.com
0.0.0.0	doc-0s-04-docs.googleusercontent.com
0.0.0.0	doc-10-04-docs.googleusercontent.com
0.0.0.0	doc-14-04-docs.googleusercontent.com
0.0.0.0	doc-00-08-docs.googleusercontent.com
0.0.0.0	doc-04-08-docs.googleusercontent.com
0.0.0.0	doc-08-08-docs.googleusercontent.com
0.0.0.0	doc-0c-08-docs.googleusercontent.com
0.0.0.0	doc-0g-08-docs.googleusercontent.com
0.0.0.0	doc-0k-08-docs.googleusercontent.com
0.0.0.0	doc-0o-08-docs.googleusercontent.com
0.0.0.0	doc-0s-08-docs.googleusercontent.com
0.0.0.0	doc-10-08-docs.googleusercontent.com
0.0.0.0	doc-14-08-docs.googleusercontent.com
0.0.0.0	doc-00-0c-docs.googleusercontent.com
0.0.0.0	doc-04-0c-docs.googleusercontent.com
0.0.0.0	doc-08-0c-docs.googleusercontent.com
0.0.0.0	doc-0c-0c-docs.googleusercontent.com
0.0.0.0	doc-0g-0c-docs.googleusercontent.com
0.0.0.0	doc-0k-0c-docs.googleusercontent.com
0.0.0.0	doc-0o-0c-docs.googleusercontent.com
0.0.0.0	doc-0s-0c-docs.googleusercontent.com
0.0.0.0	doc-10-0c-docs.googleusercontent.com
0.0.0.0	doc-14-0c-docs.googleusercontent.com
0.0.0.0	doc-00-0g-docs.googleusercontent.com
0.0.0.0	doc-04-0g-docs.googleusercontent.com
0.0.0.0	doc-08-0g-docs.googleusercontent.com
0.0.0.0	doc-0c-0g-docs.googleusercontent.com
0.0.0.0	doc-0g-0g-docs.googleusercontent.com
0.0.0.0	doc-0k-0g-docs.googleusercontent.com
0.0.0.0	doc-0o-0g-docs.googleusercontent.com
0.0.0.0	doc-0s-0g-docs.googleusercontent.com
0.0.0.0	doc-10-0g-docs.googleusercontent.com
0.0.0.0	doc-14-0g-docs.googleusercontent.com
0.0.0.0	doc-00-0k-docs.googleusercontent.com
0.0.0.0	doc-04-0k-docs.googleusercontent.com
0.0.0.0	doc-08-0k-docs.googleusercontent.com
0.0.0.0	doc-0c-0k-docs.googleusercontent.com
0.0.0.0	doc-0g-0k-docs.googleusercontent.com
0.0.0.0	doc-0k-0k-docs.googleusercontent.com
0.0.0.0	doc-0o-0k-docs.googleusercontent.com
0.0.0.0	doc-0s-0k-docs.googleusercontent.com
0.0.0.0	doc-10-0k-docs.googleusercontent.com
0.0.0.0	doc-14-0k-docs.googleusercontent.com
0.0.0.0	doc-00-0o-docs.googleusercontent.com
0.0.0.0	doc-04-0o-docs.googleusercontent.com
0.0.0.0	doc-08-0o-docs.googleusercontent.com
0.0.0.0	doc-0c-0o-docs.googleusercontent.com
0.0.0.0	doc-0g-0o-docs.googleusercontent.com
0.0.0.0	doc-0k-0o-docs.googleusercontent.com
0.0.0.0	doc-0o-0o-docs.googleusercontent.com
0.0.0.0	doc-0s-0o-docs.googleusercontent.com
0.0.0.0	doc-10-0o-docs.googleusercontent.com
0.0.0.0	doc-14-0o-docs.googleusercontent.com
0.0.0.0	doc-00-0s-docs.googleusercontent.com
0.0.0.0	doc-04-0s-docs.googleusercontent.com
0.0.0.0	doc-08-0s-docs.googleusercontent.com
0.0.0.0	doc-0c-0s-docs.googleusercontent.com
0.0.0.0	doc-0g-0s-docs.googleusercontent.com
0.0.0.0	doc-0k-0s-docs.googleusercontent.com
0.0.0.0	doc-0o-0s-docs.googleusercontent.com
0.0.0.0	doc-0s-0s-docs.googleusercontent.com
0.0.0.0	doc-10-0s-docs.googleusercontent.com
0.0.0.0	doc-14-0s-docs.googleusercontent.com
0.0.0.0	doc-00-10-docs.googleusercontent.com
0.0.0.0	doc-04-10-docs.googleusercontent.com
0.0.0.0	doc-08-10-docs.googleusercontent.com
0.0.0.0	doc-0c-10-docs.googleusercontent.com
0.0.0.0	doc-0g-10-docs.googleusercontent.com
0.0.0.0	doc-0k-10-docs.googleusercontent.com
0.0.0.0	doc-0o-10-docs.googleusercontent.com
0.0.0.0	doc-0s-10-docs.googleusercontent.com
0.0.0.0	doc-10-10-docs.googleusercontent.com
0.0.0.0	doc-14-10-docs.googleusercontent.com
0.0.0.0	doc-00-14-docs.googleusercontent.com
0.0.0.0	doc-04-14-docs.googleusercontent.com
0.0.0.0	doc-08-14-docs.googleusercontent.com
0.0.0.0	doc-0c-14-docs.googleusercontent.com
0.0.0.0	doc-0g-14-docs.googleusercontent.com
0.0.0.0	doc-0k-14-docs.googleusercontent.com
0.0.0.0	doc-0o-14-docs.googleusercontent.com
0.0.0.0	doc-0s-14-docs.googleusercontent.com
0.0.0.0	doc-10-14-docs.googleusercontent.com
0.0.0.0	doc-14-14-docs.googleusercontent.com
0.0.0.0	doc-00-18-docs.googleusercontent.com
0.0.0.0	doc-04-18-docs.googleusercontent.com
0.0.0.0	doc-08-18-docs.googleusercontent.com
0.0.0.0	doc-0c-18-docs.googleusercontent.com
0.0.0.0	doc-0g-18-docs.googleusercontent.com
0.0.0.0	doc-0k-18-docs.googleusercontent.com
0.0.0.0	doc-0o-18-docs.googleusercontent.com
0.0.0.0	doc-0s-18-docs.googleusercontent.com
0.0.0.0	doc-10-18-docs.googleusercontent.com
0.0.0.0	doc-14-18-docs.googleusercontent.com
0.0.0.0	doc-00-1c-docs.googleusercontent.com
0.0.0.0	doc-04-1c-docs.googleusercontent.com
0.0.0.0	doc-08-1c-docs.googleusercontent.com
0.0.0.0	doc-0c-1c-docs.googleusercontent.com
0.0.0.0	doc-0g-1c-docs.googleusercontent.com
0.0.0.0	doc-0k-1c-docs.googleusercontent.com
0.0.0.0	doc-0o-1c-docs.googleusercontent.com
0.0.0.0	doc-0s-1c-docs.googleusercontent.com
0.0.0.0	doc-10-1c-docs.googleusercontent.com
0.0.0.0	doc-14-1c-docs.googleusercontent.com
0.0.0.0	doc-00-1g-docs.googleusercontent.com
0.0.0.0	doc-04-1g-docs.googleusercontent.com
0.0.0.0	doc-08-1g-docs.googleusercontent.com
0.0.0.0	doc-0c-1g-docs.googleusercontent.com
0.0.0.0	doc-0g-1g-docs.googleusercontent.com
0.0.0.0	doc-0k-1g-docs.googleusercontent.com
0.0.0.0	doc-0o-1g-docs.googleusercontent.com
0.0.0.0	doc-0s-1g-docs.googleusercontent.com
0.0.0.0	doc-10-1g-docs.googleusercontent.com
0.0.0.0	doc-14-1g-docs.googleusercontent.com
0.0.0.0	doc-00-1k-docs.googleusercontent.com
0.0.0.0	doc-04-1k-docs.googleusercontent.com
0.0.0.0	doc-08-1k-docs.googleusercontent.com
0.0.0.0	doc-0c-1k-docs.googleusercontent.com
0.0.0.0	doc-0g-1k-docs.googleusercontent.com
0.0.0.0	doc-0k-1k-docs.googleusercontent.com
0.0.0.0	doc-0o-1k-docs.googleusercontent.com
0.0.0.0	doc-0s-1k-docs.googleusercontent.com
0.0.0.0	doc-10-1k-docs.googleusercontent.com
0.0.0.0	doc-14-1k-docs.googleusercontent.com
0.0.0.0	doc-00-1o-docs.googleusercontent.com
0.0.0.0	doc-04-1o-docs.googleusercontent.com
0.0.0.0	doc-08-1o-docs.googleusercontent.com
0.0.0.0	doc-0c-1o-docs.googleusercontent.com
0.0.0.0	doc-0g-1o-docs.googleusercontent.com
0.0.0.0	doc-0k-1o-docs.googleusercontent.com
0.0.0.0	doc-0o-1o-docs.googleusercontent.com
0.0.0.0	doc-0s-1o-docs.googleusercontent.com
0.0.0.0	doc-10-1o-docs.googleusercontent.com
0.0.0.0	doc-14-1o-docs.googleusercontent.com
0.0.0.0	doc-00-1s-docs.googleusercontent.com
0.0.0.0	doc-04-1s-docs.googleusercontent.com
0.0.0.0	doc-08-1s-docs.googleusercontent.com
0.0.0.0	doc-0c-1s-docs.googleusercontent.com
0.0.0.0	doc-0g-1s-docs.googleusercontent.com
0.0.0.0	doc-0k-1s-docs.googleusercontent.com
0.0.0.0	doc-0o-1s-docs.googleusercontent.com
0.0.0.0	doc-0s-1s-docs.googleusercontent.com
0.0.0.0	doc-10-1s-docs.googleusercontent.com
0.0.0.0	doc-14-1s-docs.googleusercontent.com
0.0.0.0	doc-00-20-docs.googleusercontent.com
0.0.0.0	doc-04-20-docs.googleusercontent.com
0.0.0.0	doc-08-20-docs.googleusercontent.com
0.0.0.0	doc-0c-20-docs.googleusercontent.com
0.0.0.0	doc-0g-20-docs.googleusercontent.com
0.0.0.0	doc-0k-20-docs.googleusercontent.com
0.0.0.0	doc-0o-20-docs.googleusercontent.com
0.0.0.0	doc-0s-20-docs.googleusercontent.com
0.0.0.0	doc-10-20-docs.googleusercontent.com
0.0.0.0	doc-14-20-docs.googleusercontent.com
0.0.0.0	doc-00-24-docs.googleusercontent.com
0.0.0.0	doc-04-24-docs.googleusercontent.com
0.0.0.0	doc-08-24-docs.googleusercontent.com
0.0.0.0	doc-0c-24-docs.googleusercontent.com
0.0.0.0	doc-0g-24-docs.googleusercontent.com
0.0.0.0	doc-0k-24-docs.googleusercontent.com
0.0.0.0	doc-0o-24-docs.googleusercontent.com
0.0.0.0	doc-0s-24-docs.googleusercontent.com
0.0.0.0	doc-10-24-docs.googleusercontent.com
0.0.0.0	doc-14-24-docs.googleusercontent.com
0.0.0.0	doc-00-28-docs.googleusercontent.com
0.0.0.0	doc-04-28-docs.googleusercontent.com
0.0.0.0	doc-08-28-docs.googleusercontent.com
0.0.0.0	doc-0c-28-docs.googleusercontent.com
0.0.0.0	doc-0g-28-docs.googleusercontent.com
0.0.0.0	doc-0k-28-docs.googleusercontent.com
0.0.0.0	doc-0o-28-docs.googleusercontent.com
0.0.0.0	doc-0s-28-docs.googleusercontent.com
0.0.0.0	doc-10-28-docs.googleusercontent.com
0.0.0.0	doc-14-28-docs.googleusercontent.com
0.0.0.0	doc-00-2c-docs.googleusercontent.com
0.0.0.0	doc-04-2c-docs.googleusercontent.com
0.0.0.0	doc-08-2c-docs.googleusercontent.com
0.0.0.0	doc-0c-2c-docs.googleusercontent.com
0.0.0.0	doc-0g-2c-docs.googleusercontent.com
0.0.0.0	doc-0k-2c-docs.googleusercontent.com
0.0.0.0	doc-0o-2c-docs.googleusercontent.com
0.0.0.0	doc-0s-2c-docs.googleusercontent.com
0.0.0.0	doc-10-2c-docs.googleusercontent.com
0.0.0.0	doc-14-2c-docs.googleusercontent.com
0.0.0.0	doc-00-2g-docs.googleusercontent.com
0.0.0.0	doc-04-2g-docs.googleusercontent.com
0.0.0.0	doc-08-2g-docs.googleusercontent.com
0.0.0.0	doc-0c-2g-docs.googleusercontent.com
0.0.0.0	doc-0g-2g-docs.googleusercontent.com
0.0.0.0	doc-0k-2g-docs.googleusercontent.com
0.0.0.0	doc-0o-2g-docs.googleusercontent.com
0.0.0.0	doc-0s-2g-docs.googleusercontent.com
0.0.0.0	doc-10-2g-docs.googleusercontent.com
0.0.0.0	doc-14-2g-docs.googleusercontent.com
0.0.0.0	doc-00-2k-docs.googleusercontent.com
0.0.0.0	doc-04-2k-docs.googleusercontent.com
0.0.0.0	doc-08-2k-docs.googleusercontent.com
0.0.0.0	doc-0c-2k-docs.googleusercontent.com
0.0.0.0	doc-0g-2k-docs.googleusercontent.com
0.0.0.0	doc-0k-2k-docs.googleusercontent.com
0.0.0.0	doc-0o-2k-docs.googleusercontent.com
0.0.0.0	doc-0s-2k-docs.googleusercontent.com
0.0.0.0	doc-10-2k-docs.googleusercontent.com
0.0.0.0	doc-14-2k-docs.googleusercontent.com
0.0.0.0	doc-00-2o-docs.googleusercontent.com
0.0.0.0	doc-04-2o-docs.googleusercontent.com
0.0.0.0	doc-08-2o-docs.googleusercontent.com
0.0.0.0	doc-0c-2o-docs.googleusercontent.com
0.0.0.0	doc-0g-2o-docs.googleusercontent.com
0.0.0.0	doc-0k-2o-docs.googleusercontent.com
0.0.0.0	doc-0o-2o-docs.googleusercontent.com
0.0.0.0	doc-0s-2o-docs.googleusercontent.com
0.0.0.0	doc-10-2o-docs.googleusercontent.com
0.0.0.0	doc-14-2o-docs.googleusercontent.com
0.0.0.0	doc-00-2s-docs.googleusercontent.com
0.0.0.0	doc-04-2s-docs.googleusercontent.com
0.0.0.0	doc-08-2s-docs.googleusercontent.com
0.0.0.0	doc-0c-2s-docs.googleusercontent.com
0.0.0.0	doc-0g-2s-docs.googleusercontent.com
0.0.0.0	doc-0k-2s-docs.googleusercontent.com
0.0.0.0	doc-0o-2s-docs.googleusercontent.com
0.0.0.0	doc-0s-2s-docs.googleusercontent.com
0.0.0.0	doc-10-2s-docs.googleusercontent.com
0.0.0.0	doc-14-2s-docs.googleusercontent.com
0.0.0.0	doc-00-30-docs.googleusercontent.com
0.0.0.0	doc-04-30-docs.googleusercontent.com
0.0.0.0	doc-08-30-docs.googleusercontent.com
0.0.0.0	doc-0c-30-docs.googleusercontent.com
0.0.0.0	doc-0g-30-docs.googleusercontent.com
0.0.0.0	doc-0k-30-docs.googleusercontent.com
0.0.0.0	doc-0o-30-docs.googleusercontent.com
0.0.0.0	doc-0s-30-docs.googleusercontent.com
0.0.0.0	doc-10-30-docs.googleusercontent.com
0.0.0.0	doc-14-30-docs.googleusercontent.com
0.0.0.0	doc-00-34-docs.googleusercontent.com
0.0.0.0	doc-04-34-docs.googleusercontent.com
0.0.0.0	doc-08-34-docs.googleusercontent.com
0.0.0.0	doc-0c-34-docs.googleusercontent.com
0.0.0.0	doc-0g-34-docs.googleusercontent.com
0.0.0.0	doc-0k-34-docs.googleusercontent.com
0.0.0.0	doc-0o-34-docs.googleusercontent.com
0.0.0.0	doc-0s-34-docs.googleusercontent.com
0.0.0.0	doc-10-34-docs.googleusercontent.com
0.0.0.0	doc-14-34-docs.googleusercontent.com
0.0.0.0	doc-00-38-docs.googleusercontent.com
0.0.0.0	doc-04-38-docs.googleusercontent.com
0.0.0.0	doc-08-38-docs.googleusercontent.com
0.0.0.0	doc-0c-38-docs.googleusercontent.com
0.0.0.0	doc-0g-38-docs.googleusercontent.com
0.0.0.0	doc-0k-38-docs.googleusercontent.com
0.0.0.0	doc-0o-38-docs.googleusercontent.com
0.0.0.0	doc-0s-38-docs.googleusercontent.com
0.0.0.0	doc-10-38-docs.googleusercontent.com
0.0.0.0	doc-14-38-docs.googleusercontent.com
0.0.0.0	doc-00-3c-docs.googleusercontent.com
0.0.0.0	doc-04-3c-docs.googleusercontent.com
0.0.0.0	doc-08-3c-docs.googleusercontent.com
0.0.0.0	doc-0c-3c-docs.googleusercontent.com
0.0.0.0	doc-0g-3c-docs.googleusercontent.com
0.0.0.0	doc-0k-3c-docs.googleusercontent.com
0.0.0.0	doc-0o-3c-docs.googleusercontent.com
0.0.0.0	doc-0s-3c-docs.googleusercontent.com
0.0.0.0	doc-10-3c-docs.googleusercontent.com
0.0.0.0	doc-14-3c-docs.googleusercontent.com
0.0.0.0	doc-00-3g-docs.googleusercontent.com
0.0.0.0	doc-04-3g-docs.googleusercontent.com
0.0.0.0	doc-08-3g-docs.googleusercontent.com
0.0.0.0	doc-0c-3g-docs.googleusercontent.com
0.0.0.0	doc-0g-3g-docs.googleusercontent.com
0.0.0.0	doc-0k-3g-docs.googleusercontent.com
0.0.0.0	doc-0o-3g-docs.googleusercontent.com
0.0.0.0	doc-0s-3g-docs.googleusercontent.com
0.0.0.0	doc-10-3g-docs.googleusercontent.com
0.0.0.0	doc-14-3g-docs.googleusercontent.com
0.0.0.0	doc-00-3k-docs.googleusercontent.com
0.0.0.0	doc-04-3k-docs.googleusercontent.com
0.0.0.0	doc-08-3k-docs.googleusercontent.com
0.0.0.0	doc-0c-3k-docs.googleusercontent.com
0.0.0.0	doc-0g-3k-docs.googleusercontent.com
0.0.0.0	doc-0k-3k-docs.googleusercontent.com
0.0.0.0	doc-0o-3k-docs.googleusercontent.com
0.0.0.0	doc-0s-3k-docs.googleusercontent.com
0.0.0.0	doc-10-3k-docs.googleusercontent.com
0.0.0.0	doc-14-3k-docs.googleusercontent.com
0.0.0.0	doc-00-3o-docs.googleusercontent.com
0.0.0.0	doc-04-3o-docs.googleusercontent.com
0.0.0.0	doc-08-3o-docs.googleusercontent.com
0.0.0.0	doc-0c-3o-docs.googleusercontent.com
0.0.0.0	doc-0g-3o-docs.googleusercontent.com
0.0.0.0	doc-0k-3o-docs.googleusercontent.com
0.0.0.0	doc-0o-3o-docs.googleusercontent.com
0.0.0.0	doc-0s-3o-docs.googleusercontent.com
0.0.0.0	doc-10-3o-docs.googleusercontent.com
0.0.0.0	doc-14-3o-docs.googleusercontent.com
0.0.0.0	doc-00-3s-docs.googleusercontent.com
0.0.0.0	doc-04-3s-docs.googleusercontent.com
0.0.0.0	doc-08-3s-docs.googleusercontent.com
0.0.0.0	doc-0c-3s-docs.googleusercontent.com
0.0.0.0	doc-0g-3s-docs.googleusercontent.com
0.0.0.0	doc-0k-3s-docs.googleusercontent.com
0.0.0.0	doc-0o-3s-docs.googleusercontent.com
0.0.0.0	doc-0s-3s-docs.googleusercontent.com
0.0.0.0	doc-10-3s-docs.googleusercontent.com
0.0.0.0	doc-14-3s-docs.googleusercontent.com
0.0.0.0	doc-00-40-docs.googleusercontent.com
0.0.0.0	doc-04-40-docs.googleusercontent.com
0.0.0.0	doc-08-40-docs.googleusercontent.com
0.0.0.0	doc-0c-40-docs.googleusercontent.com
0.0.0.0	doc-0g-40-docs.googleusercontent.com
0.0.0.0	doc-0k-40-docs.googleusercontent.com
0.0.0.0	doc-0o-40-docs.googleusercontent.com
0.0.0.0	doc-0s-40-docs.googleusercontent.com
0.0.0.0	doc-10-40-docs.googleusercontent.com
0.0.0.0	doc-14-40-docs.googleusercontent.com
0.0.0.0	doc-00-44-docs.googleusercontent.com
0.0.0.0	doc-04-44-docs.googleusercontent.com
0.0.0.0	doc-08-44-docs.googleusercontent.com
0.0.0.0	doc-0c-44-docs.googleusercontent.com
0.0.0.0	doc-0g-44-docs.googleusercontent.com
0.0.0.0	doc-0k-44-docs.googleusercontent.com
0.0.0.0	doc-0o-44-docs.googleusercontent.com
0.0.0.0	doc-0s-44-docs.googleusercontent.com
0.0.0.0	doc-10-44-docs.googleusercontent.com
0.0.0.0	doc-14-44-docs.googleusercontent.com
0.0.0.0	doc-00-48-docs.googleusercontent.com
0.0.0.0	doc-04-48-docs.googleusercontent.com
0.0.0.0	doc-08-48-docs.googleusercontent.com
0.0.0.0	doc-0c-48-docs.googleusercontent.com
0.0.0.0	doc-0g-48-docs.googleusercontent.com
0.0.0.0	doc-0k-48-docs.googleusercontent.com
0.0.0.0	doc-0o-48-docs.googleusercontent.com
0.0.0.0	doc-0s-48-docs.googleusercontent.com
0.0.0.0	doc-10-48-docs.googleusercontent.com
0.0.0.0	doc-14-48-docs.googleusercontent.com
0.0.0.0	doc-00-4c-docs.googleusercontent.com
0.0.0.0	doc-04-4c-docs.googleusercontent.com
0.0.0.0	doc-08-4c-docs.googleusercontent.com
0.0.0.0	doc-0c-4c-docs.googleusercontent.com
0.0.0.0	doc-0g-4c-docs.googleusercontent.com
0.0.0.0	doc-0k-4c-docs.googleusercontent.com
0.0.0.0	doc-0o-4c-docs.googleusercontent.com
0.0.0.0	doc-0s-4c-docs.googleusercontent.com
0.0.0.0	doc-10-4c-docs.googleusercontent.com
0.0.0.0	doc-14-4c-docs.googleusercontent.com
0.0.0.0	doc-00-4g-docs.googleusercontent.com
0.0.0.0	doc-04-4g-docs.googleusercontent.com
0.0.0.0	doc-08-4g-docs.googleusercontent.com
0.0.0.0	doc-0c-4g-docs.googleusercontent.com
0.0.0.0	doc-0g-4g-docs.googleusercontent.com
0.0.0.0	doc-0k-4g-docs.googleusercontent.com
0.0.0.0	doc-0o-4g-docs.googleusercontent.com
0.0.0.0	doc-0s-4g-docs.googleusercontent.com
0.0.0.0	doc-10-4g-docs.googleusercontent.com
0.0.0.0	doc-14-4g-docs.googleusercontent.com
0.0.0.0	doc-00-4k-docs.googleusercontent.com
0.0.0.0	doc-04-4k-docs.googleusercontent.com
0.0.0.0	doc-08-4k-docs.googleusercontent.com
0.0.0.0	doc-0c-4k-docs.googleusercontent.com
0.0.0.0	doc-0g-4k-docs.googleusercontent.com
0.0.0.0	doc-0k-4k-docs.googleusercontent.com
0.0.0.0	doc-0o-4k-docs.googleusercontent.com
0.0.0.0	doc-0s-4k-docs.googleusercontent.com
0.0.0.0	doc-10-4k-docs.googleusercontent.com
0.0.0.0	doc-14-4k-docs.googleusercontent.com
0.0.0.0	doc-00-4o-docs.googleusercontent.com
0.0.0.0	doc-04-4o-docs.googleusercontent.com
0.0.0.0	doc-08-4o-docs.googleusercontent.com
0.0.0.0	doc-0c-4o-docs.googleusercontent.com
0.0.0.0	doc-0g-4o-docs.googleusercontent.com
0.0.0.0	doc-0k-4o-docs.googleusercontent.com
0.0.0.0	doc-0o-4o-docs.googleusercontent.com
0.0.0.0	doc-0s-4o-docs.googleusercontent.com
0.0.0.0	doc-10-4o-docs.googleusercontent.com
0.0.0.0	doc-14-4o-docs.googleusercontent.com
0.0.0.0	doc-00-4s-docs.googleusercontent.com
0.0.0.0	doc-04-4s-docs.googleusercontent.com
0.0.0.0	doc-08-4s-docs.googleusercontent.com
0.0.0.0	doc-0c-4s-docs.googleusercontent.com
0.0.0.0	doc-0g-4s-docs.googleusercontent.com
0.0.0.0	doc-0k-4s-docs.googleusercontent.com
0.0.0.0	doc-0o-4s-docs.googleusercontent.com
0.0.0.0	doc-0s-4s-docs.googleusercontent.com
0.0.0.0	doc-10-4s-docs.googleusercontent.com
0.0.0.0	doc-14-4s-docs.googleusercontent.com
0.0.0.0	doc-00-50-docs.googleusercontent.com
0.0.0.0	doc-04-50-docs.googleusercontent.com
0.0.0.0	doc-08-50-docs.googleusercontent.com
0.0.0.0	doc-0c-50-docs.googleusercontent.com
0.0.0.0	doc-0g-50-docs.googleusercontent.com
0.0.0.0	doc-0k-50-docs.googleusercontent.com
0.0.0.0	doc-0o-50-docs.googleusercontent.com
0.0.0.0	doc-0s-50-docs.googleusercontent.com
0.0.0.0	doc-10-50-docs.googleusercontent.com
0.0.0.0	doc-14-50-docs.googleusercontent.com
0.0.0.0	doc-00-54-docs.googleusercontent.com
0.0.0.0	doc-04-54-docs.googleusercontent.com
0.0.0.0	doc-08-54-docs.googleusercontent.com
0.0.0.0	doc-0c-54-docs.googleusercontent.com
0.0.0.0	doc-0g-54-docs.googleusercontent.com
0.0.0.0	doc-0k-54-docs.googleusercontent.com
0.0.0.0	doc-0o-54-docs.googleusercontent.com
0.0.0.0	doc-0s-54-docs.googleusercontent.com
0.0.0.0	doc-10-54-docs.googleusercontent.com
0.0.0.0	doc-14-54-docs.googleusercontent.com
0.0.0.0	doc-00-58-docs.googleusercontent.com
0.0.0.0	doc-04-58-docs.googleusercontent.com
0.0.0.0	doc-08-58-docs.googleusercontent.com
0.0.0.0	doc-0c-58-docs.googleusercontent.com
0.0.0.0	doc-0g-58-docs.googleusercontent.com
0.0.0.0	doc-0k-58-docs.googleusercontent.com
0.0.0.0	doc-0o-58-docs.googleusercontent.com
0.0.0.0	doc-0s-58-docs.googleusercontent.com
0.0.0.0	doc-10-58-docs.googleusercontent.com
0.0.0.0	doc-14-58-docs.googleusercontent.com
0.0.0.0	doc-00-5c-docs.googleusercontent.com
0.0.0.0	doc-04-5c-docs.googleusercontent.com
0.0.0.0	doc-08-5c-docs.googleusercontent.com
0.0.0.0	doc-0c-5c-docs.googleusercontent.com
0.0.0.0	doc-0g-5c-docs.googleusercontent.com
0.0.0.0	doc-0k-5c-docs.googleusercontent.com
0.0.0.0	doc-0o-5c-docs.googleusercontent.com
0.0.0.0	doc-0s-5c-docs.googleusercontent.com
0.0.0.0	doc-10-5c-docs.googleusercontent.com
0.0.0.0	doc-14-5c-docs.googleusercontent.com
0.0.0.0	doc-00-5g-docs.googleusercontent.com
0.0.0.0	doc-04-5g-docs.googleusercontent.com
0.0.0.0	doc-08-5g-docs.googleusercontent.com
0.0.0.0	doc-0c-5g-docs.googleusercontent.com
0.0.0.0	doc-0g-5g-docs.googleusercontent.com
0.0.0.0	doc-0k-5g-docs.googleusercontent.com
0.0.0.0	doc-0o-5g-docs.googleusercontent.com
0.0.0.0	doc-0s-5g-docs.googleusercontent.com
0.0.0.0	doc-10-5g-docs.googleusercontent.com
0.0.0.0	doc-14-5g-docs.googleusercontent.com
0.0.0.0	doc-00-5k-docs.googleusercontent.com
0.0.0.0	doc-04-5k-docs.googleusercontent.com
0.0.0.0	doc-08-5k-docs.googleusercontent.com
0.0.0.0	doc-0c-5k-docs.googleusercontent.com
0.0.0.0	doc-0g-5k-docs.googleusercontent.com
0.0.0.0	doc-0k-5k-docs.googleusercontent.com
0.0.0.0	doc-0o-5k-docs.googleusercontent.com
0.0.0.0	doc-0s-5k-docs.googleusercontent.com
0.0.0.0	doc-10-5k-docs.googleusercontent.com
0.0.0.0	doc-14-5k-docs.googleusercontent.com
0.0.0.0	doc-00-5o-docs.googleusercontent.com
0.0.0.0	doc-04-5o-docs.googleusercontent.com
0.0.0.0	doc-08-5o-docs.googleusercontent.com
0.0.0.0	doc-0c-5o-docs.googleusercontent.com
0.0.0.0	doc-0g-5o-docs.googleusercontent.com
0.0.0.0	doc-0k-5o-docs.googleusercontent.com
0.0.0.0	doc-0o-5o-docs.googleusercontent.com
0.0.0.0	doc-0s-5o-docs.googleusercontent.com
0.0.0.0	doc-10-5o-docs.googleusercontent.com
0.0.0.0	doc-14-5o-docs.googleusercontent.com
0.0.0.0	doc-00-5s-docs.googleusercontent.com
0.0.0.0	doc-04-5s-docs.googleusercontent.com
0.0.0.0	doc-08-5s-docs.googleusercontent.com
0.0.0.0	doc-0c-5s-docs.googleusercontent.com
0.0.0.0	doc-0g-5s-docs.googleusercontent.com
0.0.0.0	doc-0k-5s-docs.googleusercontent.com
0.0.0.0	doc-0o-5s-docs.googleusercontent.com
0.0.0.0	doc-0s-5s-docs.googleusercontent.com
0.0.0.0	doc-10-5s-docs.googleusercontent.com
0.0.0.0	doc-14-5s-docs.googleusercontent.com
0.0.0.0	doc-00-60-docs.googleusercontent.com
0.0.0.0	doc-04-60-docs.googleusercontent.com
0.0.0.0	doc-08-60-docs.googleusercontent.com
0.0.0.0	doc-0c-60-docs.googleusercontent.com
0.0.0.0	doc-0g-60-docs.googleusercontent.com
0.0.0.0	doc-0k-60-docs.googleusercontent.com
0.0.0.0	doc-0o-60-docs.googleusercontent.com
0.0.0.0	doc-0s-60-docs.googleusercontent.com
0.0.0.0	doc-10-60-docs.googleusercontent.com
0.0.0.0	doc-14-60-docs.googleusercontent.com
0.0.0.0	doc-00-64-docs.googleusercontent.com
0.0.0.0	doc-04-64-docs.googleusercontent.com
0.0.0.0	doc-08-64-docs.googleusercontent.com
0.0.0.0	doc-0c-64-docs.googleusercontent.com
0.0.0.0	doc-0g-64-docs.googleusercontent.com
0.0.0.0	doc-0k-64-docs.googleusercontent.com
0.0.0.0	doc-0o-64-docs.googleusercontent.com
0.0.0.0	doc-0s-64-docs.googleusercontent.com
0.0.0.0	doc-10-64-docs.googleusercontent.com
0.0.0.0	doc-14-64-docs.googleusercontent.com
0.0.0.0	doc-00-68-docs.googleusercontent.com
0.0.0.0	doc-04-68-docs.googleusercontent.com
0.0.0.0	doc-08-68-docs.googleusercontent.com
0.0.0.0	doc-0c-68-docs.googleusercontent.com
0.0.0.0	doc-0g-68-docs.googleusercontent.com
0.0.0.0	doc-0k-68-docs.googleusercontent.com
0.0.0.0	doc-0o-68-docs.googleusercontent.com
0.0.0.0	doc-0s-68-docs.googleusercontent.com
0.0.0.0	doc-10-68-docs.googleusercontent.com
0.0.0.0	doc-14-68-docs.googleusercontent.com
0.0.0.0	doc-00-6c-docs.googleusercontent.com
0.0.0.0	doc-04-6c-docs.googleusercontent.com
0.0.0.0	doc-08-6c-docs.googleusercontent.com
0.0.0.0	doc-0c-6c-docs.googleusercontent.com
0.0.0.0	doc-0g-6c-docs.googleusercontent.com
0.0.0.0	doc-0k-6c-docs.googleusercontent.com
0.0.0.0	doc-0o-6c-docs.googleusercontent.com
0.0.0.0	doc-0s-6c-docs.googleusercontent.com
0.0.0.0	doc-10-6c-docs.googleusercontent.com
0.0.0.0	doc-14-6c-docs.googleusercontent.com
0.0.0.0	doc-00-6g-docs.googleusercontent.com
0.0.0.0	doc-04-6g-docs.googleusercontent.com
0.0.0.0	doc-08-6g-docs.googleusercontent.com
0.0.0.0	doc-0c-6g-docs.googleusercontent.com
0.0.0.0	doc-0g-6g-docs.googleusercontent.com
0.0.0.0	doc-0k-6g-docs.googleusercontent.com
0.0.0.0	doc-0o-6g-docs.googleusercontent.com
0.0.0.0	doc-0s-6g-docs.googleusercontent.com
0.0.0.0	doc-10-6g-docs.googleusercontent.com
0.0.0.0	doc-14-6g-docs.googleusercontent.com
0.0.0.0	doc-00-6k-docs.googleusercontent.com
0.0.0.0	doc-04-6k-docs.googleusercontent.com
0.0.0.0	doc-08-6k-docs.googleusercontent.com
0.0.0.0	doc-0c-6k-docs.googleusercontent.com
0.0.0.0	doc-0g-6k-docs.googleusercontent.com
0.0.0.0	doc-0k-6k-docs.googleusercontent.com
0.0.0.0	doc-0o-6k-docs.googleusercontent.com
0.0.0.0	doc-0s-6k-docs.googleusercontent.com
0.0.0.0	doc-10-6k-docs.googleusercontent.com
0.0.0.0	doc-14-6k-docs.googleusercontent.com
0.0.0.0	doc-00-6o-docs.googleusercontent.com
0.0.0.0	doc-04-6o-docs.googleusercontent.com
0.0.0.0	doc-08-6o-docs.googleusercontent.com
0.0.0.0	doc-0c-6o-docs.googleusercontent.com
0.0.0.0	doc-0g-6o-docs.googleusercontent.com
0.0.0.0	doc-0k-6o-docs.googleusercontent.com
0.0.0.0	doc-0o-6o-docs.googleusercontent.com
0.0.0.0	doc-0s-6o-docs.googleusercontent.com
0.0.0.0	doc-10-6o-docs.googleusercontent.com
0.0.0.0	doc-14-6o-docs.googleusercontent.com
0.0.0.0	doc-00-6s-docs.googleusercontent.com
0.0.0.0	doc-04-6s-docs.googleusercontent.com
0.0.0.0	doc-08-6s-docs.googleusercontent.com
0.0.0.0	doc-0c-6s-docs.googleusercontent.com
0.0.0.0	doc-0g-6s-docs.googleusercontent.com
0.0.0.0	doc-0k-6s-docs.googleusercontent.com
0.0.0.0	doc-0o-6s-docs.googleusercontent.com
0.0.0.0	doc-0s-6s-docs.googleusercontent.com
0.0.0.0	doc-10-6s-docs.googleusercontent.com
0.0.0.0	doc-14-6s-docs.googleusercontent.com
0.0.0.0	doc-00-70-docs.googleusercontent.com
0.0.0.0	doc-04-70-docs.googleusercontent.com
0.0.0.0	doc-08-70-docs.googleusercontent.com
0.0.0.0	doc-0c-70-docs.googleusercontent.com
0.0.0.0	doc-0g-70-docs.googleusercontent.com
0.0.0.0	doc-0k-70-docs.googleusercontent.com
0.0.0.0	doc-0o-70-docs.googleusercontent.com
0.0.0.0	doc-0s-70-docs.googleusercontent.com
0.0.0.0	doc-10-70-docs.googleusercontent.com
0.0.0.0	doc-14-70-docs.googleusercontent.com
0.0.0.0	doc-00-74-docs.googleusercontent.com
0.0.0.0	doc-04-74-docs.googleusercontent.com
0.0.0.0	doc-08-74-docs.googleusercontent.com
0.0.0.0	doc-0c-74-docs.googleusercontent.com
0.0.0.0	doc-0g-74-docs.googleusercontent.com
0.0.0.0	doc-0k-74-docs.googleusercontent.com
0.0.0.0	doc-0o-74-docs.googleusercontent.com
0.0.0.0	doc-0s-74-docs.googleusercontent.com
0.0.0.0	doc-10-74-docs.googleusercontent.com
0.0.0.0	doc-14-74-docs.googleusercontent.com
0.0.0.0	doc-00-78-docs.googleusercontent.com
0.0.0.0	doc-04-78-docs.googleusercontent.com
0.0.0.0	doc-08-78-docs.googleusercontent.com
0.0.0.0	doc-0c-78-docs.googleusercontent.com
0.0.0.0	doc-0g-78-docs.googleusercontent.com
0.0.0.0	doc-0k-78-docs.googleusercontent.com
0.0.0.0	doc-0o-78-docs.googleusercontent.com
0.0.0.0	doc-0s-78-docs.googleusercontent.com
0.0.0.0	doc-10-78-docs.googleusercontent.com
0.0.0.0	doc-14-78-docs.googleusercontent.com
0.0.0.0	doc-00-7c-docs.googleusercontent.com
0.0.0.0	doc-04-7c-docs.googleusercontent.com
0.0.0.0	doc-08-7c-docs.googleusercontent.com
0.0.0.0	doc-0c-7c-docs.googleusercontent.com
0.0.0.0	doc-0g-7c-docs.googleusercontent.com
0.0.0.0	doc-0k-7c-docs.googleusercontent.com
0.0.0.0	doc-0o-7c-docs.googleusercontent.com
0.0.0.0	doc-0s-7c-docs.googleusercontent.com
0.0.0.0	doc-10-7c-docs.googleusercontent.com
0.0.0.0	doc-14-7c-docs.googleusercontent.com
0.0.0.0	doc-00-7g-docs.googleusercontent.com
0.0.0.0	doc-04-7g-docs.googleusercontent.com
0.0.0.0	doc-08-7g-docs.googleusercontent.com
0.0.0.0	doc-0c-7g-docs.googleusercontent.com
0.0.0.0	doc-0g-7g-docs.googleusercontent.com
0.0.0.0	doc-0k-7g-docs.googleusercontent.com
0.0.0.0	doc-0o-7g-docs.googleusercontent.com
0.0.0.0	doc-0s-7g-docs.googleusercontent.com
0.0.0.0	doc-10-7g-docs.googleusercontent.com
0.0.0.0	doc-14-7g-docs.googleusercontent.com
0.0.0.0	doc-00-7k-docs.googleusercontent.com
0.0.0.0	doc-04-7k-docs.googleusercontent.com
0.0.0.0	doc-08-7k-docs.googleusercontent.com
0.0.0.0	doc-0c-7k-docs.googleusercontent.com
0.0.0.0	doc-0g-7k-docs.googleusercontent.com
0.0.0.0	doc-0k-7k-docs.googleusercontent.com
0.0.0.0	doc-0o-7k-docs.googleusercontent.com
0.0.0.0	doc-0s-7k-docs.googleusercontent.com
0.0.0.0	doc-10-7k-docs.googleusercontent.com
0.0.0.0	doc-14-7k-docs.googleusercontent.com
0.0.0.0	doc-00-7o-docs.googleusercontent.com
0.0.0.0	doc-04-7o-docs.googleusercontent.com
0.0.0.0	doc-08-7o-docs.googleusercontent.com
0.0.0.0	doc-0c-7o-docs.googleusercontent.com
0.0.0.0	doc-0g-7o-docs.googleusercontent.com
0.0.0.0	doc-0k-7o-docs.googleusercontent.com
0.0.0.0	doc-0o-7o-docs.googleusercontent.com
0.0.0.0	doc-0s-7o-docs.googleusercontent.com
0.0.0.0	doc-10-7o-docs.googleusercontent.com
0.0.0.0	doc-14-7o-docs.googleusercontent.com
0.0.0.0	doc-00-7s-docs.googleusercontent.com
0.0.0.0	doc-04-7s-docs.googleusercontent.com
0.0.0.0	doc-08-7s-docs.googleusercontent.com
0.0.0.0	doc-0c-7s-docs.googleusercontent.com
0.0.0.0	doc-0g-7s-docs.googleusercontent.com
0.0.0.0	doc-0k-7s-docs.googleusercontent.com
0.0.0.0	doc-0o-7s-docs.googleusercontent.com
0.0.0.0	doc-0s-7s-docs.googleusercontent.com
0.0.0.0	doc-10-7s-docs.googleusercontent.com
0.0.0.0	doc-14-7s-docs.googleusercontent.com
0.0.0.0	doc-00-80-docs.googleusercontent.com
0.0.0.0	doc-04-80-docs.googleusercontent.com
0.0.0.0	doc-08-80-docs.googleusercontent.com
0.0.0.0	doc-0c-80-docs.googleusercontent.com
0.0.0.0	doc-0g-80-docs.googleusercontent.com
0.0.0.0	doc-0k-80-docs.googleusercontent.com
0.0.0.0	doc-0o-80-docs.googleusercontent.com
0.0.0.0	doc-0s-80-docs.googleusercontent.com
0.0.0.0	doc-10-80-docs.googleusercontent.com
0.0.0.0	doc-14-80-docs.googleusercontent.com
0.0.0.0	doc-00-84-docs.googleusercontent.com
0.0.0.0	doc-04-84-docs.googleusercontent.com
0.0.0.0	doc-08-84-docs.googleusercontent.com
0.0.0.0	doc-0c-84-docs.googleusercontent.com
0.0.0.0	doc-0g-84-docs.googleusercontent.com
0.0.0.0	doc-0k-84-docs.googleusercontent.com
0.0.0.0	doc-0o-84-docs.googleusercontent.com
0.0.0.0	doc-0s-84-docs.googleusercontent.com
0.0.0.0	doc-10-84-docs.googleusercontent.com
0.0.0.0	doc-14-84-docs.googleusercontent.com
0.0.0.0	doc-00-88-docs.googleusercontent.com
0.0.0.0	doc-04-88-docs.googleusercontent.com
0.0.0.0	doc-08-88-docs.googleusercontent.com
0.0.0.0	doc-0c-88-docs.googleusercontent.com
0.0.0.0	doc-0g-88-docs.googleusercontent.com
0.0.0.0	doc-0k-88-docs.googleusercontent.com
0.0.0.0	doc-0o-88-docs.googleusercontent.com
0.0.0.0	doc-0s-88-docs.googleusercontent.com
0.0.0.0	doc-10-88-docs.googleusercontent.com
0.0.0.0	doc-14-88-docs.googleusercontent.com
0.0.0.0	doc-00-8c-docs.googleusercontent.com
0.0.0.0	doc-04-8c-docs.googleusercontent.com
0.0.0.0	doc-08-8c-docs.googleusercontent.com
0.0.0.0	doc-0c-8c-docs.googleusercontent.com
0.0.0.0	doc-0g-8c-docs.googleusercontent.com
0.0.0.0	doc-0k-8c-docs.googleusercontent.com
0.0.0.0	doc-0o-8c-docs.googleusercontent.com
0.0.0.0	doc-0s-8c-docs.googleusercontent.com
0.0.0.0	doc-10-8c-docs.googleusercontent.com
0.0.0.0	doc-14-8c-docs.googleusercontent.com
0.0.0.0	doc-00-8g-docs.googleusercontent.com
0.0.0.0	doc-04-8g-docs.googleusercontent.com
0.0.0.0	doc-08-8g-docs.googleusercontent.com
0.0.0.0	doc-0c-8g-docs.googleusercontent.com
0.0.0.0	doc-0g-8g-docs.googleusercontent.com
0.0.0.0	doc-0k-8g-docs.googleusercontent.com
0.0.0.0	doc-0o-8g-docs.googleusercontent.com
0.0.0.0	doc-0s-8g-docs.googleusercontent.com
0.0.0.0	doc-10-8g-docs.googleusercontent.com
0.0.0.0	doc-14-8g-docs.googleusercontent.com
0.0.0.0	doc-00-8k-docs.googleusercontent.com
0.0.0.0	doc-04-8k-docs.googleusercontent.com
0.0.0.0	doc-08-8k-docs.googleusercontent.com
0.0.0.0	doc-0c-8k-docs.googleusercontent.com
0.0.0.0	doc-0g-8k-docs.googleusercontent.com
0.0.0.0	doc-0k-8k-docs.googleusercontent.com
0.0.0.0	doc-0o-8k-docs.googleusercontent.com
0.0.0.0	doc-0s-8k-docs.googleusercontent.com
0.0.0.0	doc-10-8k-docs.googleusercontent.com
0.0.0.0	doc-14-8k-docs.googleusercontent.com
0.0.0.0	doc-00-8o-docs.googleusercontent.com
0.0.0.0	doc-04-8o-docs.googleusercontent.com
0.0.0.0	doc-08-8o-docs.googleusercontent.com
0.0.0.0	doc-0c-8o-docs.googleusercontent.com
0.0.0.0	doc-0g-8o-docs.googleusercontent.com
0.0.0.0	doc-0k-8o-docs.googleusercontent.com
0.0.0.0	doc-0o-8o-docs.googleusercontent.com
0.0.0.0	doc-0s-8o-docs.googleusercontent.com
0.0.0.0	doc-10-8o-docs.googleusercontent.com
0.0.0.0	doc-14-8o-docs.googleusercontent.com
0.0.0.0	doc-00-8s-docs.googleusercontent.com
0.0.0.0	doc-04-8s-docs.googleusercontent.com
0.0.0.0	doc-08-8s-docs.googleusercontent.com
0.0.0.0	doc-0c-8s-docs.googleusercontent.com
0.0.0.0	doc-0g-8s-docs.googleusercontent.com
0.0.0.0	doc-0k-8s-docs.googleusercontent.com
0.0.0.0	doc-0o-8s-docs.googleusercontent.com
0.0.0.0	doc-0s-8s-docs.googleusercontent.com
0.0.0.0	doc-10-8s-docs.googleusercontent.com
0.0.0.0	doc-14-8s-docs.googleusercontent.com
0.0.0.0	doc-00-90-docs.googleusercontent.com
0.0.0.0	doc-04-90-docs.googleusercontent.com
0.0.0.0	doc-08-90-docs.googleusercontent.com
0.0.0.0	doc-0c-90-docs.googleusercontent.com
0.0.0.0	doc-0g-90-docs.googleusercontent.com
0.0.0.0	doc-0k-90-docs.googleusercontent.com
0.0.0.0	doc-0o-90-docs.googleusercontent.com
0.0.0.0	doc-0s-90-docs.googleusercontent.com
0.0.0.0	doc-10-90-docs.googleusercontent.com
0.0.0.0	doc-14-90-docs.googleusercontent.com
0.0.0.0	doc-00-94-docs.googleusercontent.com
0.0.0.0	doc-04-94-docs.googleusercontent.com
0.0.0.0	doc-08-94-docs.googleusercontent.com
0.0.0.0	doc-0c-94-docs.googleusercontent.com
0.0.0.0	doc-0g-94-docs.googleusercontent.com
0.0.0.0	doc-0k-94-docs.googleusercontent.com
0.0.0.0	doc-0o-94-docs.googleusercontent.com
0.0.0.0	doc-0s-94-docs.googleusercontent.com
0.0.0.0	doc-10-94-docs.googleusercontent.com
0.0.0.0	doc-14-94-docs.googleusercontent.com
0.0.0.0	doc-00-98-docs.googleusercontent.com
0.0.0.0	doc-04-98-docs.googleusercontent.com
0.0.0.0	doc-08-98-docs.googleusercontent.com
0.0.0.0	doc-0c-98-docs.googleusercontent.com
0.0.0.0	doc-0g-98-docs.googleusercontent.com
0.0.0.0	doc-0k-98-docs.googleusercontent.com
0.0.0.0	doc-0o-98-docs.googleusercontent.com
0.0.0.0	doc-0s-98-docs.googleusercontent.com
0.0.0.0	doc-10-98-docs.googleusercontent.com
0.0.0.0	doc-14-98-docs.googleusercontent.com
0.0.0.0	doc-00-9c-docs.googleusercontent.com
0.0.0.0	doc-04-9c-docs.googleusercontent.com
0.0.0.0	doc-08-9c-docs.googleusercontent.com
0.0.0.0	doc-0c-9c-docs.googleusercontent.com
0.0.0.0	doc-0g-9c-docs.googleusercontent.com
0.0.0.0	doc-0k-9c-docs.googleusercontent.com
0.0.0.0	doc-0o-9c-docs.googleusercontent.com
0.0.0.0	doc-0s-9c-docs.googleusercontent.com
0.0.0.0	doc-10-9c-docs.googleusercontent.com
0.0.0.0	doc-14-9c-docs.googleusercontent.com
0.0.0.0	doc-00-9g-docs.googleusercontent.com
0.0.0.0	doc-04-9g-docs.googleusercontent.com
0.0.0.0	doc-08-9g-docs.googleusercontent.com
0.0.0.0	doc-0c-9g-docs.googleusercontent.com
0.0.0.0	doc-0g-9g-docs.googleusercontent.com
0.0.0.0	doc-0k-9g-docs.googleusercontent.com
0.0.0.0	doc-0o-9g-docs.googleusercontent.com
0.0.0.0	doc-0s-9g-docs.googleusercontent.com
0.0.0.0	doc-10-9g-docs.googleusercontent.com
0.0.0.0	doc-14-9g-docs.googleusercontent.com
0.0.0.0	doc-00-9k-docs.googleusercontent.com
0.0.0.0	doc-04-9k-docs.googleusercontent.com
0.0.0.0	doc-08-9k-docs.googleusercontent.com
0.0.0.0	doc-0c-9k-docs.googleusercontent.com
0.0.0.0	doc-0g-9k-docs.googleusercontent.com
0.0.0.0	doc-0k-9k-docs.googleusercontent.com
0.0.0.0	doc-0o-9k-docs.googleusercontent.com
0.0.0.0	doc-0s-9k-docs.googleusercontent.com
0.0.0.0	doc-10-9k-docs.googleusercontent.com
0.0.0.0	doc-14-9k-docs.googleusercontent.com
0.0.0.0	doc-00-9o-docs.googleusercontent.com
0.0.0.0	doc-04-9o-docs.googleusercontent.com
0.0.0.0	doc-08-9o-docs.googleusercontent.com
0.0.0.0	doc-0c-9o-docs.googleusercontent.com
0.0.0.0	doc-0g-9o-docs.googleusercontent.com
0.0.0.0	doc-0k-9o-docs.googleusercontent.com
0.0.0.0	doc-0o-9o-docs.googleusercontent.com
0.0.0.0	doc-0s-9o-docs.googleusercontent.com
0.0.0.0	doc-10-9o-docs.googleusercontent.com
0.0.0.0	doc-14-9o-docs.googleusercontent.com
0.0.0.0	doc-00-9s-docs.googleusercontent.com
0.0.0.0	doc-04-9s-docs.googleusercontent.com
0.0.0.0	doc-08-9s-docs.googleusercontent.com
0.0.0.0	doc-0c-9s-docs.googleusercontent.com
0.0.0.0	doc-0g-9s-docs.googleusercontent.com
0.0.0.0	doc-0k-9s-docs.googleusercontent.com
0.0.0.0	doc-0o-9s-docs.googleusercontent.com
0.0.0.0	doc-0s-9s-docs.googleusercontent.com
0.0.0.0	doc-10-9s-docs.googleusercontent.com
0.0.0.0	doc-14-9s-docs.googleusercontent.com
0.0.0.0	doc-00-a0-docs.googleusercontent.com
0.0.0.0	doc-04-a0-docs.googleusercontent.com
0.0.0.0	doc-08-a0-docs.googleusercontent.com
0.0.0.0	doc-0c-a0-docs.googleusercontent.com
0.0.0.0	doc-0g-a0-docs.googleusercontent.com
0.0.0.0	doc-0k-a0-docs.googleusercontent.com
0.0.0.0	doc-0o-a0-docs.googleusercontent.com
0.0.0.0	doc-0s-a0-docs.googleusercontent.com
0.0.0.0	doc-10-a0-docs.googleusercontent.com
0.0.0.0	doc-14-a0-docs.googleusercontent.com
0.0.0.0	doc-00-a4-docs.googleusercontent.com
0.0.0.0	doc-04-a4-docs.googleusercontent.com
0.0.0.0	doc-08-a4-docs.googleusercontent.com
0.0.0.0	doc-0c-a4-docs.googleusercontent.com
0.0.0.0	doc-0g-a4-docs.googleusercontent.com
0.0.0.0	doc-0k-a4-docs.googleusercontent.com
0.0.0.0	doc-0o-a4-docs.googleusercontent.com
0.0.0.0	doc-0s-a4-docs.googleusercontent.com
0.0.0.0	doc-10-a4-docs.googleusercontent.com
0.0.0.0	doc-14-a4-docs.googleusercontent.com
0.0.0.0	doc-00-a8-docs.googleusercontent.com
0.0.0.0	doc-04-a8-docs.googleusercontent.com
0.0.0.0	doc-08-a8-docs.googleusercontent.com
0.0.0.0	doc-0c-a8-docs.googleusercontent.com
0.0.0.0	doc-0g-a8-docs.googleusercontent.com
0.0.0.0	doc-0k-a8-docs.googleusercontent.com
0.0.0.0	doc-0o-a8-docs.googleusercontent.com
0.0.0.0	doc-0s-a8-docs.googleusercontent.com
0.0.0.0	doc-10-a8-docs.googleusercontent.com
0.0.0.0	doc-14-a8-docs.googleusercontent.com
0.0.0.0	doc-00-ac-docs.googleusercontent.com
0.0.0.0	doc-04-ac-docs.googleusercontent.com
0.0.0.0	doc-08-ac-docs.googleusercontent.com
0.0.0.0	doc-0c-ac-docs.googleusercontent.com
0.0.0.0	doc-0g-ac-docs.googleusercontent.com
0.0.0.0	doc-0k-ac-docs.googleusercontent.com
0.0.0.0	doc-0o-ac-docs.googleusercontent.com
0.0.0.0	doc-0s-ac-docs.googleusercontent.com
0.0.0.0	doc-10-ac-docs.googleusercontent.com
0.0.0.0	doc-14-ac-docs.googleusercontent.com
0.0.0.0	doc-00-ag-docs.googleusercontent.com
0.0.0.0	doc-04-ag-docs.googleusercontent.com
0.0.0.0	doc-08-ag-docs.googleusercontent.com
0.0.0.0	doc-0c-ag-docs.googleusercontent.com
0.0.0.0	doc-0g-ag-docs.googleusercontent.com
0.0.0.0	doc-0k-ag-docs.googleusercontent.com
0.0.0.0	doc-0o-ag-docs.googleusercontent.com
0.0.0.0	doc-0s-ag-docs.googleusercontent.com
0.0.0.0	doc-10-ag-docs.googleusercontent.com
0.0.0.0	doc-14-ag-docs.googleusercontent.com
0.0.0.0	doc-00-ak-docs.googleusercontent.com
0.0.0.0	doc-04-ak-docs.googleusercontent.com
0.0.0.0	doc-08-ak-docs.googleusercontent.com
0.0.0.0	doc-0c-ak-docs.googleusercontent.com
0.0.0.0	doc-0g-ak-docs.googleusercontent.com
0.0.0.0	doc-0k-ak-docs.googleusercontent.com
0.0.0.0	doc-0o-ak-docs.googleusercontent.com
0.0.0.0	doc-0s-ak-docs.googleusercontent.com
0.0.0.0	doc-10-ak-docs.googleusercontent.com
0.0.0.0	doc-14-ak-docs.googleusercontent.com
0.0.0.0	doc-00-ao-docs.googleusercontent.com
0.0.0.0	doc-04-ao-docs.googleusercontent.com
0.0.0.0	doc-08-ao-docs.googleusercontent.com
0.0.0.0	doc-0c-ao-docs.googleusercontent.com
0.0.0.0	doc-0g-ao-docs.googleusercontent.com
0.0.0.0	doc-0k-ao-docs.googleusercontent.com
0.0.0.0	doc-0o-ao-docs.googleusercontent.com
0.0.0.0	doc-0s-ao-docs.googleusercontent.com
0.0.0.0	doc-10-ao-docs.googleusercontent.com
0.0.0.0	doc-14-ao-docs.googleusercontent.com
0.0.0.0	doc-00-as-docs.googleusercontent.com
0.0.0.0	doc-04-as-docs.googleusercontent.com
0.0.0.0	doc-08-as-docs.googleusercontent.com
0.0.0.0	doc-0c-as-docs.googleusercontent.com
0.0.0.0	doc-0g-as-docs.googleusercontent.com
0.0.0.0	doc-0k-as-docs.googleusercontent.com
0.0.0.0	doc-0o-as-docs.googleusercontent.com
0.0.0.0	doc-0s-as-docs.googleusercontent.com
0.0.0.0	doc-10-as-docs.googleusercontent.com
0.0.0.0	doc-14-as-docs.googleusercontent.com
0.0.0.0	doc-00-b0-docs.googleusercontent.com
0.0.0.0	doc-04-b0-docs.googleusercontent.com
0.0.0.0	doc-08-b0-docs.googleusercontent.com
0.0.0.0	doc-0c-b0-docs.googleusercontent.com
0.0.0.0	doc-0g-b0-docs.googleusercontent.com
0.0.0.0	doc-0k-b0-docs.googleusercontent.com
0.0.0.0	doc-0o-b0-docs.googleusercontent.com
0.0.0.0	doc-0s-b0-docs.googleusercontent.com
0.0.0.0	doc-10-b0-docs.googleusercontent.com
0.0.0.0	doc-14-b0-docs.googleusercontent.com
0.0.0.0	doc-00-b4-docs.googleusercontent.com
0.0.0.0	doc-04-b4-docs.googleusercontent.com
0.0.0.0	doc-08-b4-docs.googleusercontent.com
0.0.0.0	doc-0c-b4-docs.googleusercontent.com
0.0.0.0	doc-0g-b4-docs.googleusercontent.com
0.0.0.0	doc-0k-b4-docs.googleusercontent.com
0.0.0.0	doc-0o-b4-docs.googleusercontent.com
0.0.0.0	doc-0s-b4-docs.googleusercontent.com
0.0.0.0	doc-10-b4-docs.googleusercontent.com
0.0.0.0	doc-14-b4-docs.googleusercontent.com
0.0.0.0	doc-00-b8-docs.googleusercontent.com
0.0.0.0	doc-04-b8-docs.googleusercontent.com
0.0.0.0	doc-08-b8-docs.googleusercontent.com
0.0.0.0	doc-0c-b8-docs.googleusercontent.com
0.0.0.0	doc-0g-b8-docs.googleusercontent.com
0.0.0.0	doc-0k-b8-docs.googleusercontent.com
0.0.0.0	doc-0o-b8-docs.googleusercontent.com
0.0.0.0	doc-0s-b8-docs.googleusercontent.com
0.0.0.0	doc-10-b8-docs.googleusercontent.com
0.0.0.0	doc-14-b8-docs.googleusercontent.com
0.0.0.0	doc-00-bc-docs.googleusercontent.com
0.0.0.0	doc-04-bc-docs.googleusercontent.com
0.0.0.0	doc-08-bc-docs.googleusercontent.com
0.0.0.0	doc-0c-bc-docs.googleusercontent.com
0.0.0.0	doc-0g-bc-docs.googleusercontent.com
0.0.0.0	doc-0k-bc-docs.googleusercontent.com
0.0.0.0	doc-0o-bc-docs.googleusercontent.com
0.0.0.0	doc-0s-bc-docs.googleusercontent.com
0.0.0.0	doc-10-bc-docs.googleusercontent.com
0.0.0.0	doc-14-bc-docs.googleusercontent.com
0.0.0.0	doc-00-bg-docs.googleusercontent.com
0.0.0.0	doc-04-bg-docs.googleusercontent.com
0.0.0.0	doc-08-bg-docs.googleusercontent.com
0.0.0.0	doc-0c-bg-docs.googleusercontent.com
0.0.0.0	doc-0g-bg-docs.googleusercontent.com
0.0.0.0	doc-0k-bg-docs.googleusercontent.com
0.0.0.0	doc-0o-bg-docs.googleusercontent.com
0.0.0.0	doc-0s-bg-docs.googleusercontent.com
0.0.0.0	doc-10-bg-docs.googleusercontent.com
0.0.0.0	doc-14-bg-docs.googleusercontent.com
0.0.0.0	doc-00-bk-docs.googleusercontent.com
0.0.0.0	doc-04-bk-docs.googleusercontent.com
0.0.0.0	doc-08-bk-docs.googleusercontent.com
0.0.0.0	doc-0c-bk-docs.googleusercontent.com
0.0.0.0	doc-0g-bk-docs.googleusercontent.com
0.0.0.0	doc-0k-bk-docs.googleusercontent.com
0.0.0.0	doc-0o-bk-docs.googleusercontent.com
0.0.0.0	doc-0s-bk-docs.googleusercontent.com
0.0.0.0	doc-10-bk-docs.googleusercontent.com
0.0.0.0	doc-14-bk-docs.googleusercontent.com
0.0.0.0	doc-00-bo-docs.googleusercontent.com
0.0.0.0	doc-04-bo-docs.googleusercontent.com
0.0.0.0	doc-08-bo-docs.googleusercontent.com
0.0.0.0	doc-0c-bo-docs.googleusercontent.com
0.0.0.0	doc-0g-bo-docs.googleusercontent.com
0.0.0.0	doc-0k-bo-docs.googleusercontent.com
0.0.0.0	doc-0o-bo-docs.googleusercontent.com
0.0.0.0	doc-0s-bo-docs.googleusercontent.com
0.0.0.0	doc-10-bo-docs.googleusercontent.com
0.0.0.0	doc-14-bo-docs.googleusercontent.com
0.0.0.0	doc-00-bs-docs.googleusercontent.com
0.0.0.0	doc-04-bs-docs.googleusercontent.com
0.0.0.0	doc-08-bs-docs.googleusercontent.com
0.0.0.0	doc-0c-bs-docs.googleusercontent.com
0.0.0.0	doc-0g-bs-docs.googleusercontent.com
0.0.0.0	doc-0k-bs-docs.googleusercontent.com
0.0.0.0	doc-0o-bs-docs.googleusercontent.com
0.0.0.0	doc-0s-bs-docs.googleusercontent.com
0.0.0.0	doc-10-bs-docs.googleusercontent.com
0.0.0.0	doc-14-bs-docs.googleusercontent.com
0.0.0.0	doc-00-c0-docs.googleusercontent.com
0.0.0.0	doc-04-c0-docs.googleusercontent.com
0.0.0.0	doc-08-c0-docs.googleusercontent.com
0.0.0.0	doc-0c-c0-docs.googleusercontent.com
0.0.0.0	doc-0g-c0-docs.googleusercontent.com
0.0.0.0	doc-0k-c0-docs.googleusercontent.com
0.0.0.0	doc-0o-c0-docs.googleusercontent.com
0.0.0.0	doc-0s-c0-docs.googleusercontent.com
0.0.0.0	doc-10-c0-docs.googleusercontent.com
0.0.0.0	doc-14-c0-docs.googleusercontent.com
0.0.0.0	doc-00-c4-docs.googleusercontent.com
0.0.0.0	doc-04-c4-docs.googleusercontent.com
0.0.0.0	doc-08-c4-docs.googleusercontent.com
0.0.0.0	doc-0c-c4-docs.googleusercontent.com
0.0.0.0	doc-0g-c4-docs.googleusercontent.com
0.0.0.0	doc-0k-c4-docs.googleusercontent.com
0.0.0.0	doc-0o-c4-docs.googleusercontent.com
0.0.0.0	doc-0s-c4-docs.googleusercontent.com
0.0.0.0	doc-10-c4-docs.googleusercontent.com
0.0.0.0	doc-14-c4-docs.googleusercontent.com
0.0.0.0	doc-00-c8-docs.googleusercontent.com
0.0.0.0	doc-04-c8-docs.googleusercontent.com
0.0.0.0	doc-08-c8-docs.googleusercontent.com
0.0.0.0	doc-0c-c8-docs.googleusercontent.com
0.0.0.0	doc-0g-c8-docs.googleusercontent.com
0.0.0.0	doc-0k-c8-docs.googleusercontent.com
0.0.0.0	doc-0o-c8-docs.googleusercontent.com
0.0.0.0	doc-0s-c8-docs.googleusercontent.com
0.0.0.0	doc-10-c8-docs.googleusercontent.com
0.0.0.0	doc-14-c8-docs.googleusercontent.com
0.0.0.0	doc-00-cc-docs.googleusercontent.com
0.0.0.0	doc-04-cc-docs.googleusercontent.com
0.0.0.0	doc-08-cc-docs.googleusercontent.com
0.0.0.0	doc-0c-cc-docs.googleusercontent.com
0.0.0.0	doc-0g-cc-docs.googleusercontent.com
0.0.0.0	doc-0k-cc-docs.googleusercontent.com
0.0.0.0	doc-0o-cc-docs.googleusercontent.com
0.0.0.0	doc-0s-cc-docs.googleusercontent.com
0.0.0.0	doc-10-cc-docs.googleusercontent.com
0.0.0.0	doc-14-cc-docs.googleusercontent.com
0.0.0.0	doc-00-cg-docs.googleusercontent.com
0.0.0.0	doc-04-cg-docs.googleusercontent.com
0.0.0.0	doc-08-cg-docs.googleusercontent.com
0.0.0.0	doc-0c-cg-docs.googleusercontent.com
0.0.0.0	doc-0g-cg-docs.googleusercontent.com
0.0.0.0	doc-0k-cg-docs.googleusercontent.com
0.0.0.0	doc-0o-cg-docs.googleusercontent.com
0.0.0.0	doc-0s-cg-docs.googleusercontent.com
0.0.0.0	doc-10-cg-docs.googleusercontent.com
0.0.0.0	doc-14-cg-docs.googleusercontent.com
0.0.0.0	doc-00-ck-docs.googleusercontent.com
0.0.0.0	doc-04-ck-docs.googleusercontent.com
0.0.0.0	doc-08-ck-docs.googleusercontent.com
0.0.0.0	doc-0c-ck-docs.googleusercontent.com
0.0.0.0	doc-0g-ck-docs.googleusercontent.com
0.0.0.0	doc-0k-ck-docs.googleusercontent.com
0.0.0.0	doc-0o-ck-docs.googleusercontent.com
0.0.0.0	doc-0s-ck-docs.googleusercontent.com
0.0.0.0	doc-10-ck-docs.googleusercontent.com
0.0.0.0	doc-14-ck-docs.googleusercontent.com
0.0.0.0	doc-00-co-docs.googleusercontent.com
0.0.0.0	doc-04-co-docs.googleusercontent.com
0.0.0.0	doc-08-co-docs.googleusercontent.com
0.0.0.0	doc-0c-co-docs.googleusercontent.com
0.0.0.0	doc-0g-co-docs.googleusercontent.com
0.0.0.0	doc-0k-co-docs.googleusercontent.com
0.0.0.0	doc-0o-co-docs.googleusercontent.com
0.0.0.0	doc-0s-co-docs.googleusercontent.com
0.0.0.0	doc-10-co-docs.googleusercontent.com
0.0.0.0	doc-14-co-docs.googleusercontent.com
0.0.0.0	doc-00-cs-docs.googleusercontent.com
0.0.0.0	doc-04-cs-docs.googleusercontent.com
0.0.0.0	doc-08-cs-docs.googleusercontent.com
0.0.0.0	doc-0c-cs-docs.googleusercontent.com
0.0.0.0	doc-0g-cs-docs.googleusercontent.com
0.0.0.0	doc-0k-cs-docs.googleusercontent.com
0.0.0.0	doc-0o-cs-docs.googleusercontent.com
0.0.0.0	doc-0s-cs-docs.googleusercontent.com
0.0.0.0	doc-10-cs-docs.googleusercontent.com
0.0.0.0	doc-14-cs-docs.googleusercontent.com
0.0.0.0	doc-00-2g-3dwarehouse.googleusercontent.com
0.0.0.0	doc-04-2g-3dwarehouse.googleusercontent.com
0.0.0.0	doc-08-2g-3dwarehouse.googleusercontent.com
0.0.0.0	doc-0c-2g-3dwarehouse.googleusercontent.com
0.0.0.0	doc-0g-2g-3dwarehouse.googleusercontent.com
0.0.0.0	doc-0k-2g-3dwarehouse.googleusercontent.com
0.0.0.0	doc-0o-2g-3dwarehouse.googleusercontent.com
0.0.0.0	doc-0s-2g-3dwarehouse.googleusercontent.com
0.0.0.0	doc-10-2g-3dwarehouse.googleusercontent.com
0.0.0.0	doc-14-2g-3dwarehouse.googleusercontent.com
0.0.0.0	feedback.googleusercontent.com
0.0.0.0	images1-esmobile-opensocial.googleusercontent.com
0.0.0.0	images2-esmobile-opensocial.googleusercontent.com
0.0.0.0	images3-esmobile-opensocial.googleusercontent.com
0.0.0.0	images4-esmobile-opensocial.googleusercontent.com
0.0.0.0	images5-esmobile-opensocial.googleusercontent.com
0.0.0.0	images6-esmobile-opensocial.googleusercontent.com
0.0.0.0	images7-esmobile-opensocial.googleusercontent.com
0.0.0.0	images8-esmobile-opensocial.googleusercontent.com
0.0.0.0	images9-esmobile-opensocial.googleusercontent.com
0.0.0.0	images1-hangout-opensocial.googleusercontent.com
0.0.0.0	images2-hangout-opensocial.googleusercontent.com
0.0.0.0	images3-hangout-opensocial.googleusercontent.com
0.0.0.0	images4-hangout-opensocial.googleusercontent.com
0.0.0.0	images5-hangout-opensocial.googleusercontent.com
0.0.0.0	images6-hangout-opensocial.googleusercontent.com
0.0.0.0	images7-hangout-opensocial.googleusercontent.com
0.0.0.0	images8-hangout-opensocial.googleusercontent.com
0.0.0.0	images9-hangout-opensocial.googleusercontent.com
0.0.0.0	images-docs-opensocial.googleusercontent.com
0.0.0.0	images-oz-opensocial.googleusercontent.com
0.0.0.0	images-lso-opensocial.googleusercontent.com
0.0.0.0	images-blogger-opensocial.googleusercontent.com
0.0.0.0	images-pos-opensocial.googleusercontent.com
0.0.0.0	www-calendar-opensocial.googleusercontent.com
0.0.0.0	a-oz-opensocial.googleusercontent.com
0.0.0.0	lh0.googleusercontent.com
0.0.0.0	lh1.googleusercontent.com
0.0.0.0	lh2.googleusercontent.com
0.0.0.0	lh3.googleusercontent.com
0.0.0.0	lh4.googleusercontent.com
0.0.0.0	lh5.googleusercontent.com
0.0.0.0	lh6.googleusercontent.com
0.0.0.0	mail-attachment.googleusercontent.com
0.0.0.0	music-onebox.googleusercontent.com
0.0.0.0	newsstand.googleusercontent.com
0.0.0.0	oauth.googleusercontent.com
0.0.0.0	producer.googleusercontent.com
0.0.0.0	reader.googleusercontent.com
0.0.0.0	s1.googleusercontent.com
0.0.0.0	s2.googleusercontent.com
0.0.0.0	s3.googleusercontent.com
0.0.0.0	s4.googleusercontent.com
0.0.0.0	s5.googleusercontent.com
0.0.0.0	s6.googleusercontent.com
0.0.0.0	spreadsheets-opensocial.googleusercontent.com
0.0.0.0	static.googleusercontent.com
0.0.0.0	themes.googleusercontent.com
0.0.0.0	translate.googleusercontent.com
0.0.0.0	video.googleusercontent.com
0.0.0.0	wave.googleusercontent.com
0.0.0.0	webcache.googleusercontent.com
0.0.0.0	ytimg.googleusercontent.com
0.0.0.0	www-opensocial.googleusercontent.com
0.0.0.0	www-gm-opensocial.googleusercontent.com
0.0.0.0	www-opensocial-sandbox.googleusercontent.com
0.0.0.0	www-fc-opensocial.googleusercontent.com
0.0.0.0	www-focus-opensocial.googleusercontent.com
0.0.0.0	images0-focus-opensocial.googleusercontent.com
0.0.0.0	images1-focus-opensocial.googleusercontent.com
0.0.0.0	images2-focus-opensocial.googleusercontent.com
0.0.0.0	images3-focus-opensocial.googleusercontent.com
0.0.0.0	images4-focus-opensocial.googleusercontent.com
0.0.0.0	images5-focus-opensocial.googleusercontent.com
0.0.0.0	images6-focus-opensocial.googleusercontent.com
0.0.0.0	images7-focus-opensocial.googleusercontent.com
0.0.0.0	images8-focus-opensocial.googleusercontent.com
0.0.0.0	images9-focus-opensocial.googleusercontent.com
0.0.0.0	0-focus-opensocial.googleusercontent.com
0.0.0.0	1-focus-opensocial.googleusercontent.com
0.0.0.0	2-focus-opensocial.googleusercontent.com
0.0.0.0	3-focus-opensocial.googleusercontent.com
0.0.0.0	www-fusiontables-opensocial.googleusercontent.com
0.0.0.0	www-kix-opensocial.googleusercontent.com
0.0.0.0	www-onepick-opensocial.googleusercontent.com
0.0.0.0	images-onepick-opensocial.googleusercontent.com
0.0.0.0	www-open-opensocial.googleusercontent.com
0.0.0.0	0-open-opensocial.googleusercontent.com
0.0.0.0	1-open-opensocial.googleusercontent.com
0.0.0.0	2-open-opensocial.googleusercontent.com
0.0.0.0	3-open-opensocial.googleusercontent.com
0.0.0.0	www-oz-opensocial.googleusercontent.com
0.0.0.0	www-trixcopysheet-opensocial.googleusercontent.com
0.0.0.0	www-wave-opensocial.googleusercontent.com
0.0.0.0	wave-opensocial.googleusercontent.com
0.0.0.0	0-wave-opensocial.googleusercontent.com
0.0.0.0	1-wave-opensocial.googleusercontent.com
0.0.0.0	2-wave-opensocial.googleusercontent.com
0.0.0.0	3-wave-opensocial.googleusercontent.com
0.0.0.0	4-wave-opensocial.googleusercontent.com
0.0.0.0	5-wave-opensocial.googleusercontent.com
0.0.0.0	6-wave-opensocial.googleusercontent.com
0.0.0.0	7-wave-opensocial.googleusercontent.com
0.0.0.0	8-wave-opensocial.googleusercontent.com
0.0.0.0	9-wave-opensocial.googleusercontent.com
0.0.0.0	10-wave-opensocial.googleusercontent.com
0.0.0.0	11-wave-opensocial.googleusercontent.com
0.0.0.0	12-wave-opensocial.googleusercontent.com
0.0.0.0	13-wave-opensocial.googleusercontent.com
0.0.0.0	14-wave-opensocial.googleusercontent.com
0.0.0.0	15-wave-opensocial.googleusercontent.com
0.0.0.0	16-wave-opensocial.googleusercontent.com
0.0.0.0	17-wave-opensocial.googleusercontent.com
0.0.0.0	18-wave-opensocial.googleusercontent.com
0.0.0.0	19-wave-opensocial.googleusercontent.com
0.0.0.0	20-wave-opensocial.googleusercontent.com
0.0.0.0	21-wave-opensocial.googleusercontent.com
0.0.0.0	22-wave-opensocial.googleusercontent.com
0.0.0.0	23-wave-opensocial.googleusercontent.com
0.0.0.0	24-wave-opensocial.googleusercontent.com
0.0.0.0	25-wave-opensocial.googleusercontent.com
0.0.0.0	26-wave-opensocial.googleusercontent.com
0.0.0.0	27-wave-opensocial.googleusercontent.com
0.0.0.0	28-wave-opensocial.googleusercontent.com
0.0.0.0	29-wave-opensocial.googleusercontent.com
0.0.0.0	30-wave-opensocial.googleusercontent.com
0.0.0.0	31-wave-opensocial.googleusercontent.com
0.0.0.0	32-wave-opensocial.googleusercontent.com
0.0.0.0	33-wave-opensocial.googleusercontent.com
0.0.0.0	34-wave-opensocial.googleusercontent.com
0.0.0.0	35-wave-opensocial.googleusercontent.com
0.0.0.0	36-wave-opensocial.googleusercontent.com
0.0.0.0	37-wave-opensocial.googleusercontent.com
0.0.0.0	38-wave-opensocial.googleusercontent.com
0.0.0.0	39-wave-opensocial.googleusercontent.com
0.0.0.0	40-wave-opensocial.googleusercontent.com
# Googleusercontent End

0.0.0.0	toolbox.googleapps.com
0.0.0.0	m.google.com
0.0.0.0	m.google.com.hk
0.0.0.0	m.google.com.tw
0.0.0.0	m.google.com.sg
0.0.0.0	mobile.google.com
0.0.0.0	mobile.l.google.com
0.0.0.0	proxy.googlezip.net
0.0.0.0	compress.googlezip.net
0.0.0.0	proxy-dev.googlezip.net
0.0.0.0	polymer-project.org
0.0.0.0	www.polymer-project.org
0.0.0.0	talkgadget.l.google.com
0.0.0.0	hangouts.google.com
0.0.0.0	hangout.google.com
0.0.0.0	0.talkgadget.google.com
0.0.0.0	chromoting-oauth.talkgadget.google.com
0.0.0.0	chromoting-host.talkgadget.google.com
0.0.0.0	chromoting-client.talkgadget.google.com
0.0.0.0	remoting-pa.googleapis.com
0.0.0.0	personalsafety-pa.googleapis.com
0.0.0.0	clientmetrics-pa.googleapis.com
0.0.0.0	contacts.google.com
0.0.0.0	youtube.com
0.0.0.0	au.youtube.com
0.0.0.0	ca.youtube.com
0.0.0.0	de.youtube.com
0.0.0.0	jp.youtube.com
0.0.0.0	ru.youtube.com
0.0.0.0	uk.youtube.com
0.0.0.0	tw.youtube.com
0.0.0.0	ads.youtube.com
0.0.0.0	www.youtube-nocookie.com
0.0.0.0	m.youtube.com
0.0.0.0	youtu.be
0.0.0.0	gdata.youtube.com
0.0.0.0	stage.gdata.youtube.com
0.0.0.0	s.youtube.com
0.0.0.0	accounts.youtube.com
0.0.0.0	img.youtube.com
0.0.0.0	help.youtube.com
0.0.0.0	upload.youtube.com
0.0.0.0	insight.youtube.com
0.0.0.0	apiblog.youtube.com
0.0.0.0	manifest.googlevideo.com
0.0.0.0	onetoday.google.com
0.0.0.0	notifications.google.com

# Google:others Start
0.0.0.0	google.ad
0.0.0.0	google.ae
0.0.0.0	google.al
0.0.0.0	google.am
0.0.0.0	google.as
0.0.0.0	google.at
0.0.0.0	google.az
0.0.0.0	google.ba
0.0.0.0	google.be
0.0.0.0	google.bf
0.0.0.0	google.bg
0.0.0.0	google.bi
0.0.0.0	google.bj
0.0.0.0	google.bs
0.0.0.0	google.bt
0.0.0.0	google.by
0.0.0.0	google.ca
0.0.0.0	google.cat
0.0.0.0	google.cd
0.0.0.0	google.cf
0.0.0.0	google.cg
0.0.0.0	google.ch
0.0.0.0	google.ci
0.0.0.0	google.cl
0.0.0.0	google.cm
0.0.0.0	google.co.ao
0.0.0.0	google.co.bw
0.0.0.0	google.co.ck
0.0.0.0	google.co.cr
0.0.0.0	google.co.id
0.0.0.0	google.co.il
0.0.0.0	google.co.in
0.0.0.0	google.co.ke
0.0.0.0	google.co.kr
0.0.0.0	google.co.ls
0.0.0.0	google.co.ma
0.0.0.0	google.co.mz
0.0.0.0	google.co.nz
0.0.0.0	google.co.th
0.0.0.0	google.co.tz
0.0.0.0	google.co.ug
0.0.0.0	google.co.uk
0.0.0.0	google.co.uz
0.0.0.0	google.co.ve
0.0.0.0	google.co.vi
0.0.0.0	google.co.za
0.0.0.0	google.co.zm
0.0.0.0	google.co.zw
0.0.0.0	google.com.af
0.0.0.0	google.com.ag
0.0.0.0	google.com.ai
0.0.0.0	google.com.ar
0.0.0.0	google.com.au
0.0.0.0	google.com.bd
0.0.0.0	google.com.bh
0.0.0.0	google.com.bn
0.0.0.0	google.com.bo
0.0.0.0	google.com.br
0.0.0.0	google.com.bz
0.0.0.0	google.com.co
0.0.0.0	google.com.cu
0.0.0.0	google.com.cy
0.0.0.0	google.com.do
0.0.0.0	google.com.ec
0.0.0.0	google.com.eg
0.0.0.0	google.com.et
0.0.0.0	google.com.fj
0.0.0.0	google.com.gh
0.0.0.0	google.com.gi
0.0.0.0	google.com.gt
0.0.0.0	google.com.jm
0.0.0.0	google.com.kh
0.0.0.0	google.com.kw
0.0.0.0	google.com.lb
0.0.0.0	google.com.ly
0.0.0.0	google.com.mm
0.0.0.0	google.com.mt
0.0.0.0	google.com.mx
0.0.0.0	google.com.my
0.0.0.0	google.com.na
0.0.0.0	google.com.nf
0.0.0.0	google.com.ng
0.0.0.0	google.com.ni
0.0.0.0	google.com.np
0.0.0.0	google.com.om
0.0.0.0	google.com.pa
0.0.0.0	google.com.pe
0.0.0.0	google.com.pg
0.0.0.0	google.com.ph
0.0.0.0	google.com.pk
0.0.0.0	google.com.pr
0.0.0.0	google.com.py
0.0.0.0	google.com.qa
0.0.0.0	google.com.sa
0.0.0.0	google.com.sb
0.0.0.0	google.com.sl
0.0.0.0	google.com.sv
0.0.0.0	google.com.tj
0.0.0.0	google.com.tr
0.0.0.0	google.com.ua
0.0.0.0	google.com.uy
0.0.0.0	google.com.vc
0.0.0.0	google.com.vn
0.0.0.0	google.cv
0.0.0.0	google.cz
0.0.0.0	google.de
0.0.0.0	google.dj
0.0.0.0	google.dk
0.0.0.0	google.dm
0.0.0.0	google.dz
0.0.0.0	google.ee
0.0.0.0	google.es
0.0.0.0	google.fi
0.0.0.0	google.fm
0.0.0.0	google.fr
0.0.0.0	google.ga
0.0.0.0	google.ge
0.0.0.0	google.gg
0.0.0.0	google.gl
0.0.0.0	google.gm
0.0.0.0	google.gp
0.0.0.0	google.gr
0.0.0.0	google.gy
0.0.0.0	google.hn
0.0.0.0	google.hr
0.0.0.0	google.ht
0.0.0.0	google.hu
0.0.0.0	google.ie
0.0.0.0	google.im
0.0.0.0	google.iq
0.0.0.0	google.is
0.0.0.0	google.it
0.0.0.0	google.je
0.0.0.0	google.jo
0.0.0.0	google.kg
0.0.0.0	google.ki
0.0.0.0	google.kz
0.0.0.0	google.la
0.0.0.0	google.li
0.0.0.0	google.lk
0.0.0.0	google.lt
0.0.0.0	google.lu
0.0.0.0	google.lv
0.0.0.0	google.md
0.0.0.0	google.me
0.0.0.0	google.mg
0.0.0.0	google.mk
0.0.0.0	google.ml
0.0.0.0	google.mn
0.0.0.0	google.ms
0.0.0.0	google.mu
0.0.0.0	google.mv
0.0.0.0	google.mw
0.0.0.0	google.ne
0.0.0.0	google.nl
0.0.0.0	google.no
0.0.0.0	google.nr
0.0.0.0	google.nu
0.0.0.0	google.pl
0.0.0.0	google.pn
0.0.0.0	google.ps
0.0.0.0	google.pt
0.0.0.0	google.ro
0.0.0.0	google.rs
0.0.0.0	google.ru
0.0.0.0	google.rw
0.0.0.0	google.sc
0.0.0.0	google.se
0.0.0.0	google.sh
0.0.0.0	google.si
0.0.0.0	google.sk
0.0.0.0	google.sm
0.0.0.0	google.sn
0.0.0.0	google.so
0.0.0.0	google.st
0.0.0.0	google.td
0.0.0.0	google.tg
0.0.0.0	google.tk
0.0.0.0	google.tl
0.0.0.0	google.tm
0.0.0.0	google.tn
0.0.0.0	google.to
0.0.0.0	google.tt
0.0.0.0	google.vg
0.0.0.0	google.vu
0.0.0.0	google.ws
0.0.0.0	www.google.ad
0.0.0.0	www.google.ae
0.0.0.0	www.google.al
0.0.0.0	www.google.am
0.0.0.0	www.google.as
0.0.0.0	www.google.at
0.0.0.0	www.google.az
0.0.0.0	www.google.ba
0.0.0.0	www.google.be
0.0.0.0	www.google.bf
0.0.0.0	www.google.bg
0.0.0.0	www.google.bi
0.0.0.0	www.google.bj
0.0.0.0	www.google.bs
0.0.0.0	www.google.bt
0.0.0.0	www.google.by
0.0.0.0	www.google.ca
0.0.0.0	www.google.cat
0.0.0.0	www.google.cd
0.0.0.0	www.google.cf
0.0.0.0	www.google.cg
0.0.0.0	www.google.ch
0.0.0.0	www.google.ci
0.0.0.0	www.google.cl
0.0.0.0	www.google.cm
0.0.0.0	www.google.co.ao
0.0.0.0	www.google.co.bw
0.0.0.0	www.google.co.ck
0.0.0.0	www.google.co.cr
0.0.0.0	www.google.co.id
0.0.0.0	www.google.co.il
0.0.0.0	www.google.co.in
0.0.0.0	www.google.co.ke
0.0.0.0	www.google.co.kr
0.0.0.0	www.google.co.ls
0.0.0.0	www.google.co.ma
0.0.0.0	www.google.co.mz
0.0.0.0	www.google.co.nz
0.0.0.0	www.google.co.th
0.0.0.0	www.google.co.tz
0.0.0.0	www.google.co.ug
0.0.0.0	www.google.co.uk
0.0.0.0	www.google.co.uz
0.0.0.0	www.google.co.ve
0.0.0.0	www.google.co.vi
0.0.0.0	www.google.co.za
0.0.0.0	www.google.co.zm
0.0.0.0	www.google.co.zw
0.0.0.0	www.google.com.af
0.0.0.0	www.google.com.ag
0.0.0.0	www.google.com.ai
0.0.0.0	www.google.com.ar
0.0.0.0	www.google.com.au
0.0.0.0	www.google.com.bd
0.0.0.0	www.google.com.bh
0.0.0.0	www.google.com.bn
0.0.0.0	www.google.com.bo
0.0.0.0	www.google.com.br
0.0.0.0	www.google.com.bz
0.0.0.0	www.google.com.co
0.0.0.0	www.google.com.cu
0.0.0.0	www.google.com.cy
0.0.0.0	www.google.com.do
0.0.0.0	www.google.com.ec
0.0.0.0	www.google.com.eg
0.0.0.0	www.google.com.et
0.0.0.0	www.google.com.fj
0.0.0.0	www.google.com.gh
0.0.0.0	www.google.com.gi
0.0.0.0	www.google.com.gr
0.0.0.0	www.google.com.gt
0.0.0.0	www.google.com.jm
0.0.0.0	www.google.com.kh
0.0.0.0	www.google.com.kw
0.0.0.0	www.google.com.lb
0.0.0.0	www.google.com.ly
0.0.0.0	www.google.com.mm
0.0.0.0	www.google.com.mt
0.0.0.0	www.google.com.mx
0.0.0.0	www.google.com.my
0.0.0.0	www.google.com.na
0.0.0.0	www.google.com.nf
0.0.0.0	www.google.com.ng
0.0.0.0	www.google.com.ni
0.0.0.0	www.google.com.np
0.0.0.0	www.google.com.om
0.0.0.0	www.google.com.pa
0.0.0.0	www.google.com.pe
0.0.0.0	www.google.com.pg
0.0.0.0	www.google.com.ph
0.0.0.0	www.google.com.pk
0.0.0.0	www.google.com.pr
0.0.0.0	www.google.com.py
0.0.0.0	www.google.com.qa
0.0.0.0	www.google.com.ru
0.0.0.0	www.google.com.sa
0.0.0.0	www.google.com.sb
0.0.0.0	www.google.com.sl
0.0.0.0	www.google.com.sv
0.0.0.0	www.google.com.tj
0.0.0.0	www.google.com.tr
0.0.0.0	www.google.com.ua
0.0.0.0	www.google.com.uy
0.0.0.0	www.google.com.vc
0.0.0.0	www.google.com.vn
0.0.0.0	www.google.cv
0.0.0.0	www.google.cz
0.0.0.0	www.google.de
0.0.0.0	www.google.dj
0.0.0.0	www.google.dk
0.0.0.0	www.google.dm
0.0.0.0	www.google.dz
0.0.0.0	www.google.ee
0.0.0.0	www.google.es
0.0.0.0	www.google.fi
0.0.0.0	www.google.fm
0.0.0.0	www.google.fr
0.0.0.0	www.google.ga
0.0.0.0	www.google.ge
0.0.0.0	www.google.gg
0.0.0.0	www.google.gl
0.0.0.0	www.google.gm
0.0.0.0	www.google.gp
0.0.0.0	www.google.gr
0.0.0.0	www.google.gy
0.0.0.0	www.google.hn
0.0.0.0	www.google.hr
0.0.0.0	www.google.ht
0.0.0.0	www.google.hu
0.0.0.0	www.google.ie
0.0.0.0	www.google.im
0.0.0.0	www.google.iq
0.0.0.0	www.google.is
0.0.0.0	www.google.it
0.0.0.0	www.google.je
0.0.0.0	www.google.jo
0.0.0.0	www.google.kg
0.0.0.0	www.google.ki
0.0.0.0	www.google.kz
0.0.0.0	www.google.la
0.0.0.0	www.google.li
0.0.0.0	www.google.lk
0.0.0.0	www.google.lt
0.0.0.0	www.google.lu
0.0.0.0	www.google.lv
0.0.0.0	www.google.md
0.0.0.0	www.google.me
0.0.0.0	www.google.mg
0.0.0.0	www.google.mk
0.0.0.0	www.google.ml
0.0.0.0	www.google.mn
0.0.0.0	www.google.ms
0.0.0.0	www.google.mu
0.0.0.0	www.google.mv
0.0.0.0	www.google.mw
0.0.0.0	www.google.ne
0.0.0.0	www.google.nl
0.0.0.0	www.google.no
0.0.0.0	www.google.nr
0.0.0.0	www.google.nu
0.0.0.0	www.google.pl
0.0.0.0	www.google.pn
0.0.0.0	www.google.ps
0.0.0.0	www.google.pt
0.0.0.0	www.google.ro
0.0.0.0	www.google.rs
0.0.0.0	www.google.ru
0.0.0.0	www.google.rw
0.0.0.0	www.google.sc
0.0.0.0	www.google.se
0.0.0.0	www.google.sh
0.0.0.0	www.google.si
0.0.0.0	www.google.sk
0.0.0.0	www.google.sm
0.0.0.0	www.google.sn
0.0.0.0	www.google.so
0.0.0.0	www.google.st
0.0.0.0	www.google.td
0.0.0.0	www.google.tg
0.0.0.0	www.google.tk
0.0.0.0	www.google.tl
0.0.0.0	www.google.tm
0.0.0.0	www.google.tn
0.0.0.0	www.google.to
0.0.0.0	www.google.tt
0.0.0.0	www.google.vg
0.0.0.0	www.google.vu
0.0.0.0	www.google.ws
0.0.0.0	foobar.withgoogle.com
0.0.0.0	interstellar.withgoogle.com
0.0.0.0	edudirectory.withgoogle.com
0.0.0.0	atmosphere.withgoogle.com
0.0.0.0	accelerate.withgoogle.com
0.0.0.0	insgruene.withgoogle.com
0.0.0.0	atmospheretokyo.withgoogle.com
0.0.0.0	connectedclassrooms.withgoogle.com
0.0.0.0	smartypins.withgoogle.com
0.0.0.0	streetart.withgoogle.com
0.0.0.0	cardboard.withgoogle.com
0.0.0.0	kickwithchrome.withgoogle.com
0.0.0.0	candidatos.withgoogle.com
0.0.0.0	trendstw.withgoogle.com
0.0.0.0	impactchallenge.withgoogle.com
0.0.0.0	virustotalcloud.appspot.com
0.0.0.0	eduproducts.withgoogle.com
0.0.0.0	certificate-transparency.org
0.0.0.0	www.certificate-transparency.org
0.0.0.0	abc.xyz
0.0.0.0	www.androidexperiments.com
0.0.0.0	androidexperiments.com
0.0.0.0	www.tensorflow.org
# Google:others End

# Gmail SMTP/POP/IMAP Start
0.0.0.0	gmr-smtp-in.l.google.com
0.0.0.0	googlemail-imap.l.google.com
0.0.0.0	googlemail-smtp.l.google.com
0.0.0.0	googlemail-pop.l.google.com
0.0.0.0	pop.googlemail.com
0.0.0.0	imap.googlemail.com
0.0.0.0	smtp.googlemail.com
0.0.0.0	gmail-smtp-in.l.google.com
0.0.0.0	gmail-imap.l.google.com
0.0.0.0	gmail-pop.l.google.com
0.0.0.0	gmail-smtp.l.google.com
0.0.0.0	imap.gmail.com
0.0.0.0	smtp.gmail.com
0.0.0.0	pop.gmail.com
0.0.0.0	gmail-smtp-msa.l.google.com
# Gmail SMTP/POP/IMAP End

# Google:stun Server Start
0.0.0.0	stun.l.google.com
0.0.0.0	alt1.stun.l.google.com
0.0.0.0	alt2.stun.l.google.com
0.0.0.0	alt3.stun.l.google.com
0.0.0.0	alt4.stun.l.google.com
0.0.0.0	alt5.stun.l.google.com
# Google:stun Server End

# Google:Gtalk	Start
0.0.0.0	talk.google.com
0.0.0.0	talk.l.google.com
0.0.0.0	talkx.l.google.com
0.0.0.0	alt1.talk.l.google.com
# Google:Gtalk	End

# Google:ghs Start
0.0.0.0	ghs.google.com
0.0.0.0	ghs46.google.com
0.0.0.0	ghs.l.google.com
0.0.0.0	ghs46.l.google.com
0.0.0.0	www.nianticlabs.com
0.0.0.0	gsamplemaps.googlepages.com
0.0.0.0	javascript-blocker.toggleable.com
0.0.0.0	goto.ext.google.com
0.0.0.0	webrtc.org
0.0.0.0	www.webrtc.org
0.0.0.0	chromeexperiments.com
0.0.0.0	www.chromeexperiments.com
0.0.0.0	vr.chromeexperiments.com
0.0.0.0	globe.chromeexperiments.com
0.0.0.0	workshop.chromeexperiments.com
0.0.0.0	www.gwtproject.org
0.0.0.0	www.html5rocks.com
0.0.0.0	slides.html5rocks.com
0.0.0.0	playground.html5rocks.com
0.0.0.0	studio.html5rocks.com
0.0.0.0	lists.webmproject.org
0.0.0.0	www.waveprotocol.org
0.0.0.0	www.20thingsilearned.com
0.0.0.0	www.creativelab5.com
0.0.0.0	blog.webmproject.org
0.0.0.0	www.agoogleaday.com
0.0.0.0	www.gosetsuden.jp
0.0.0.0	www.thegooglepuzzle.com
0.0.0.0	www.thegobridgeoglepuzzle.com
0.0.0.0	www.googlezeitgeist.com
0.0.0.0	news.dartlang.org
0.0.0.0	dartpad.dartlang.org
# Google:ghs End

# Google:gcm Start
0.0.0.0	mobile-gtalk.l.google.com
0.0.0.0	mtalk.google.com
0.0.0.0	gcm.googleapis.com
0.0.0.0	gcm.l.google.com
0.0.0.0	gcm-xmpp.googleapis.com
0.0.0.0	gcm-http.googleapis.com
0.0.0.0	gcm-preprod.l.google.com
0.0.0.0	gcm-preprod.googleapis.com
# Google:gcm End

# Goole:duo Start
0.0.0.0	instantmessaging-pa.googleapis.com
# Goole:duo End

# Google:A-GPS Start
0.0.0.0	supl.google.com
# Google:A-GPS End

# Google:Made the code for girls Start
0.0.0.0	madewithcode.com
0.0.0.0	www.madewithcode.com
# Google:Made the code for girls End
# Google End