# Yahoo Start
0.0.0.0	code.flickr.com
0.0.0.0	api.flickr.com
0.0.0.0	c5.ah.yahoo.com
0.0.0.0	d.yimg.com
0.0.0.0	de.yahoo.com
0.0.0.0	e.yimg.com
0.0.0.0	edit.yahoo.com
0.0.0.0	c.staticflickr.com
0.0.0.0	c1.staticflickr.com
0.0.0.0	c2.staticflickr.com
0.0.0.0	c3.staticflickr.com
0.0.0.0	c4.staticflickr.com
0.0.0.0	c5.staticflickr.com
0.0.0.0	c6.staticflickr.com
0.0.0.0	c7.staticflickr.com
0.0.0.0	c8.staticflickr.com
0.0.0.0	c9.staticflickr.com
0.0.0.0	farm1.staticflickr.com
0.0.0.0	farm2.staticflickr.com
0.0.0.0	farm3.staticflickr.com
0.0.0.0	farm4.staticflickr.com
0.0.0.0	farm5.staticflickr.com
0.0.0.0	farm6.staticflickr.com
0.0.0.0	farm7.staticflickr.com
0.0.0.0	farm8.staticflickr.com
0.0.0.0	farm9.staticflickr.com
0.0.0.0	bf1.farm3.staticflickr.com
0.0.0.0	bf1.farm6.staticflickr.com
0.0.0.0	bf1.farm7.staticflickr.com
0.0.0.0	gq1.farm3.staticflickr.com
0.0.0.0	gq1.farm4.staticflickr.com
0.0.0.0	gq1.farm5.staticflickr.com
0.0.0.0	gq1.farm6.staticflickr.com
0.0.0.0	ne1.farm7.staticflickr.com
0.0.0.0	flickr.com
0.0.0.0	geo.query.yahoo.com
0.0.0.0	geo.yahoo.com
0.0.0.0	finance.yahoo.com
0.0.0.0	lh.secure.yahoo.com
0.0.0.0	hk.finance.yahoo.com
0.0.0.0	tw.finance.yahoo.com
0.0.0.0	h.yimg.com
0.0.0.0	hk.news.yahoo.com
0.0.0.0	hk.yahoo.com
0.0.0.0	hsrd.yahoo.com
0.0.0.0	hk-mg61.mail.yahoo.com
0.0.0.0	l.yimg.com
0.0.0.0	login.yahoo.com
0.0.0.0	m.flickr.com
0.0.0.0	mail.yahoo.com
0.0.0.0	mg.mail.yahoo.com
0.0.0.0	na.edit.yahoo.com
0.0.0.0	open.login.yahoo.com
0.0.0.0	overview.mail.yahoo.com
0.0.0.0	p.yimg.com
0.0.0.0	s.yimg.com
0.0.0.0	s1.yimg.com
0.0.0.0	sa.edit.yahoo.com
0.0.0.0	secure.flickr.com
0.0.0.0	heartbeat.flickr.com
0.0.0.0	sp.analytics.yahoo.com
0.0.0.0	static.flickr.com
0.0.0.0	tw.news.yahoo.com
0.0.0.0	tw.yahoo.com
0.0.0.0	up.flickr.com
0.0.0.0	us.js2.yimg.com
0.0.0.0	us.yahoo.com
0.0.0.0	www.flickr.com
0.0.0.0	www.yahoo.com
0.0.0.0	yahoo.com
0.0.0.0	ying.com
0.0.0.0	downloadr.flickr.com
0.0.0.0	duckduckgo-owned-server.yahoo.net
0.0.0.0	tw.mobi.yahoo.com
# Yahoo End
# Tumblr Start
0.0.0.0	tumblr.com
0.0.0.0	tumblr.co
0.0.0.0	api.tumblr.com
0.0.0.0	www.tumblr.com
0.0.0.0	cynicallys.tumblr.com
0.0.0.0	mx.tumblr.com
0.0.0.0	vt.tumblr.com
0.0.0.0	vt.media.tumblr.com
0.0.0.0	vtt.tumblr.com
0.0.0.0	ls.srvcs.tumblr.com
0.0.0.0	px.srvcs.tumblr.com
0.0.0.0	assets.tumblr.com
0.0.0.0	secure.assets.tumblr.com
0.0.0.0	secure.static.tumblr.com
0.0.0.0	media.tumblr.com
0.0.0.0	24.media.tumblr.com
0.0.0.0	30.media.tumblr.com
0.0.0.0	31.media.tumblr.com
0.0.0.0	32.media.tumblr.com
0.0.0.0	33.media.tumblr.com
0.0.0.0	36.media.tumblr.com
0.0.0.0	37.media.tumblr.com
0.0.0.0	38.media.tumblr.com
0.0.0.0	39.media.tumblr.com
0.0.0.0	40.media.tumblr.com
0.0.0.0	41.media.tumblr.com
0.0.0.0	42.media.tumblr.com
0.0.0.0	43.media.tumblr.com
0.0.0.0	44.media.tumblr.com
0.0.0.0	45.media.tumblr.com
0.0.0.0	46.media.tumblr.com
0.0.0.0	47.media.tumblr.com
0.0.0.0	48.media.tumblr.com
0.0.0.0	49.media.tumblr.com
0.0.0.0	50.media.tumblr.com
0.0.0.0	65.media.tumblr.com
0.0.0.0	66.media.tumblr.com
0.0.0.0	67.media.tumblr.com
0.0.0.0	68.media.tumblr.com
0.0.0.0	90.media.tumblr.com
0.0.0.0	94.media.tumblr.com
0.0.0.0	95.media.tumblr.com
0.0.0.0	96.media.tumblr.com
0.0.0.0	97.media.tumblr.com
0.0.0.0	98.media.tumblr.com
0.0.0.0	99.media.tumblr.com
# Tumblr End